G04 #@! TF.GenerationSoftware,KiCad,Pcbnew,(6.0.10)*
G04 #@! TF.CreationDate,2023-03-06T22:58:16-06:00*
G04 #@! TF.ProjectId,DST,4453542e-6b69-4636-9164-5f7063625858,rev?*
G04 #@! TF.SameCoordinates,Original*
G04 #@! TF.FileFunction,Copper,L2,Bot*
G04 #@! TF.FilePolarity,Positive*
%FSLAX46Y46*%
G04 Gerber Fmt 4.6, Leading zero omitted, Abs format (unit mm)*
G04 Created by KiCad (PCBNEW (6.0.10)) date 2023-03-06 22:58:16*
%MOMM*%
%LPD*%
G01*
G04 APERTURE LIST*
G04 #@! TA.AperFunction,HeatsinkPad*
%ADD10C,0.500000*%
G04 #@! TD*
G04 #@! TA.AperFunction,ComponentPad*
%ADD11R,1.700000X1.700000*%
G04 #@! TD*
G04 #@! TA.AperFunction,ComponentPad*
%ADD12O,1.700000X1.700000*%
G04 #@! TD*
G04 #@! TA.AperFunction,SMDPad,CuDef*
%ADD13R,1.350000X4.200000*%
G04 #@! TD*
G04 #@! TA.AperFunction,ViaPad*
%ADD14C,0.800000*%
G04 #@! TD*
G04 #@! TA.AperFunction,Conductor*
%ADD15C,0.500126*%
G04 #@! TD*
G04 #@! TA.AperFunction,Conductor*
%ADD16C,0.261112*%
G04 #@! TD*
G04 APERTURE END LIST*
D10*
X121439000Y-50023000D03*
X118639000Y-50023000D03*
X120739000Y-49323000D03*
X121439000Y-48623000D03*
X120739000Y-47923000D03*
X119339000Y-49323000D03*
X119339000Y-50723000D03*
X119339000Y-47923000D03*
X120039000Y-48623000D03*
X118639000Y-48623000D03*
X120039000Y-50023000D03*
X120739000Y-50723000D03*
D11*
X140081000Y-46746000D03*
D12*
X140081000Y-49286000D03*
X140081000Y-51826000D03*
X140081000Y-54366000D03*
D11*
X167500000Y-109975000D03*
D12*
X167500000Y-112515000D03*
D11*
X109600000Y-116750000D03*
D12*
X107060000Y-116750000D03*
D11*
X167750000Y-74725000D03*
D12*
X167750000Y-77265000D03*
X167750000Y-79805000D03*
D13*
X164325000Y-42500000D03*
X158675000Y-42500000D03*
D11*
X76705000Y-99950000D03*
D12*
X76705000Y-102490000D03*
D14*
X105000000Y-62500000D03*
X98000000Y-43000000D03*
X102750000Y-61000000D03*
X121000000Y-77750000D03*
X121000000Y-82250000D03*
X153750000Y-99750000D03*
X142000000Y-93000000D03*
X150500000Y-93250000D03*
X163957000Y-78740000D03*
X90750000Y-45989944D03*
X163957000Y-75819000D03*
X99000000Y-70500000D03*
X93250000Y-55500000D03*
X90750000Y-47750000D03*
X152230056Y-69469000D03*
X150780944Y-70739000D03*
X151257000Y-56896000D03*
X144399000Y-56896000D03*
X110250000Y-55500000D03*
X136250000Y-87000000D03*
X137250000Y-114000000D03*
X109250000Y-66250000D03*
X109250000Y-94250000D03*
X152500000Y-67250000D03*
X130250000Y-61500000D03*
X136250000Y-99750000D03*
X92250000Y-81000000D03*
X156000000Y-45750000D03*
X163250000Y-46250000D03*
X116000000Y-63250000D03*
X90500000Y-61250000D03*
X74750000Y-46750000D03*
X167000000Y-45500000D03*
X158000000Y-46250000D03*
X78500000Y-63750000D03*
X103250000Y-97750000D03*
X83000000Y-46750000D03*
X86750000Y-100500000D03*
X154500000Y-67500000D03*
X159750000Y-46250000D03*
X143750000Y-98000000D03*
X167000000Y-43750000D03*
X144000000Y-96250000D03*
X82000000Y-78500000D03*
X152250000Y-50750000D03*
X135250000Y-53000000D03*
X75250000Y-51250000D03*
X150500000Y-67750000D03*
X128750000Y-109250000D03*
X135250000Y-50500000D03*
X93000000Y-49250000D03*
X77000000Y-45000000D03*
X77250000Y-52500000D03*
X165250000Y-46250000D03*
X85250000Y-85250000D03*
X156000000Y-41500000D03*
X126250000Y-49250000D03*
X83000000Y-51000000D03*
X137500000Y-48250000D03*
X138750000Y-96250000D03*
X107250000Y-60500000D03*
X80500000Y-52500000D03*
X156000000Y-43750000D03*
X85000000Y-95250000D03*
X140000000Y-59750000D03*
X80500000Y-45000000D03*
X99750000Y-53000000D03*
X167000000Y-41500000D03*
X107500000Y-44250000D03*
X133500000Y-65000000D03*
X133500000Y-62000000D03*
X77750000Y-60250000D03*
X83750000Y-61250000D03*
X110000000Y-102750000D03*
X110000000Y-105250000D03*
D15*
X100500000Y-62500000D02*
X105000000Y-62500000D01*
X98000000Y-60000000D02*
X100500000Y-62500000D01*
X98000000Y-43000000D02*
X98000000Y-60000000D01*
D16*
X102750000Y-49000000D02*
X102750000Y-61000000D01*
D15*
X121000000Y-82250000D02*
X121000000Y-77750000D01*
X90750000Y-45989944D02*
X90750000Y-47750000D01*
X93250000Y-59500000D02*
X99000000Y-65250000D01*
X163957000Y-75819000D02*
X163957000Y-78740000D01*
X99000000Y-65250000D02*
X99000000Y-70500000D01*
X93250000Y-55500000D02*
X93250000Y-59500000D01*
D16*
X150960056Y-70739000D02*
X152230056Y-69469000D01*
X150780944Y-70739000D02*
X150960056Y-70739000D01*
X144399000Y-56896000D02*
X151257000Y-56896000D01*
X107500000Y-44250000D02*
X102750000Y-49000000D01*
X133500000Y-62000000D02*
X133500000Y-65000000D01*
D15*
X78750000Y-61250000D02*
X83750000Y-61250000D01*
X77750000Y-60250000D02*
X78750000Y-61250000D01*
X110000000Y-102750000D02*
X110000000Y-105250000D01*
G04 #@! TA.AperFunction,Conductor*
G36*
X157434121Y-40778502D02*
G01*
X157480614Y-40832158D01*
X157492000Y-40884500D01*
X157492000Y-42227885D01*
X157496475Y-42243124D01*
X157497865Y-42244329D01*
X157505548Y-42246000D01*
X159839884Y-42246000D01*
X159855123Y-42241525D01*
X159856328Y-42240135D01*
X159857999Y-42232452D01*
X159857999Y-40884500D01*
X159878001Y-40816379D01*
X159931657Y-40769886D01*
X159983999Y-40758500D01*
X163016000Y-40758500D01*
X163084121Y-40778502D01*
X163130614Y-40832158D01*
X163142000Y-40884500D01*
X163142000Y-42227885D01*
X163146475Y-42243124D01*
X163147865Y-42244329D01*
X163155548Y-42246000D01*
X165489884Y-42246000D01*
X165505123Y-42241525D01*
X165506328Y-42240135D01*
X165507999Y-42232452D01*
X165507999Y-40884500D01*
X165528001Y-40816379D01*
X165581657Y-40769886D01*
X165633999Y-40758500D01*
X170865500Y-40758500D01*
X170933621Y-40778502D01*
X170980114Y-40832158D01*
X170991500Y-40884500D01*
X170991500Y-119615500D01*
X170971498Y-119683621D01*
X170917842Y-119730114D01*
X170865500Y-119741500D01*
X72134500Y-119741500D01*
X72066379Y-119721498D01*
X72019886Y-119667842D01*
X72008500Y-119615500D01*
X72008500Y-117750000D01*
X72386526Y-117750000D01*
X72406391Y-118002403D01*
X72407545Y-118007210D01*
X72407546Y-118007216D01*
X72429575Y-118098971D01*
X72465495Y-118248591D01*
X72562384Y-118482502D01*
X72694672Y-118698376D01*
X72859102Y-118890898D01*
X73051624Y-119055328D01*
X73267498Y-119187616D01*
X73272068Y-119189509D01*
X73272072Y-119189511D01*
X73496836Y-119282611D01*
X73501409Y-119284505D01*
X73586032Y-119304821D01*
X73742784Y-119342454D01*
X73742790Y-119342455D01*
X73747597Y-119343609D01*
X73847416Y-119351465D01*
X73934345Y-119358307D01*
X73934352Y-119358307D01*
X73936801Y-119358500D01*
X74063199Y-119358500D01*
X74065648Y-119358307D01*
X74065655Y-119358307D01*
X74152584Y-119351465D01*
X74252403Y-119343609D01*
X74257210Y-119342455D01*
X74257216Y-119342454D01*
X74413968Y-119304821D01*
X74498591Y-119284505D01*
X74503164Y-119282611D01*
X74727928Y-119189511D01*
X74727932Y-119189509D01*
X74732502Y-119187616D01*
X74948376Y-119055328D01*
X75140898Y-118890898D01*
X75305328Y-118698376D01*
X75437616Y-118482502D01*
X75534505Y-118248591D01*
X75570425Y-118098971D01*
X75592454Y-118007216D01*
X75592455Y-118007210D01*
X75593609Y-118002403D01*
X75613474Y-117750000D01*
X75593609Y-117497597D01*
X75534505Y-117251409D01*
X75497647Y-117162425D01*
X75439511Y-117022072D01*
X75439509Y-117022068D01*
X75437616Y-117017498D01*
X75305328Y-116801624D01*
X75232791Y-116716695D01*
X105697251Y-116716695D01*
X105710110Y-116939715D01*
X105711247Y-116944761D01*
X105711248Y-116944767D01*
X105726688Y-117013278D01*
X105759222Y-117157639D01*
X105843266Y-117364616D01*
X105845965Y-117369020D01*
X105924757Y-117497597D01*
X105959987Y-117555088D01*
X106106250Y-117723938D01*
X106278126Y-117866632D01*
X106471000Y-117979338D01*
X106679692Y-118059030D01*
X106684760Y-118060061D01*
X106684763Y-118060062D01*
X106792017Y-118081883D01*
X106898597Y-118103567D01*
X106903772Y-118103757D01*
X106903774Y-118103757D01*
X107116673Y-118111564D01*
X107116677Y-118111564D01*
X107121837Y-118111753D01*
X107126957Y-118111097D01*
X107126959Y-118111097D01*
X107338288Y-118084025D01*
X107338289Y-118084025D01*
X107343416Y-118083368D01*
X107348366Y-118081883D01*
X107552429Y-118020661D01*
X107552434Y-118020659D01*
X107557384Y-118019174D01*
X107757994Y-117920896D01*
X107939860Y-117791173D01*
X108048091Y-117683319D01*
X108110462Y-117649404D01*
X108181268Y-117654592D01*
X108238030Y-117697238D01*
X108255012Y-117728341D01*
X108263132Y-117750000D01*
X108299385Y-117846705D01*
X108386739Y-117963261D01*
X108503295Y-118050615D01*
X108639684Y-118101745D01*
X108701866Y-118108500D01*
X110498134Y-118108500D01*
X110560316Y-118101745D01*
X110696705Y-118050615D01*
X110813261Y-117963261D01*
X110900615Y-117846705D01*
X110936868Y-117750000D01*
X167386526Y-117750000D01*
X167406391Y-118002403D01*
X167407545Y-118007210D01*
X167407546Y-118007216D01*
X167429575Y-118098971D01*
X167465495Y-118248591D01*
X167562384Y-118482502D01*
X167694672Y-118698376D01*
X167859102Y-118890898D01*
X168051624Y-119055328D01*
X168267498Y-119187616D01*
X168272068Y-119189509D01*
X168272072Y-119189511D01*
X168496836Y-119282611D01*
X168501409Y-119284505D01*
X168586032Y-119304821D01*
X168742784Y-119342454D01*
X168742790Y-119342455D01*
X168747597Y-119343609D01*
X168847416Y-119351465D01*
X168934345Y-119358307D01*
X168934352Y-119358307D01*
X168936801Y-119358500D01*
X169063199Y-119358500D01*
X169065648Y-119358307D01*
X169065655Y-119358307D01*
X169152584Y-119351465D01*
X169252403Y-119343609D01*
X169257210Y-119342455D01*
X169257216Y-119342454D01*
X169413968Y-119304821D01*
X169498591Y-119284505D01*
X169503164Y-119282611D01*
X169727928Y-119189511D01*
X169727932Y-119189509D01*
X169732502Y-119187616D01*
X169948376Y-119055328D01*
X170140898Y-118890898D01*
X170305328Y-118698376D01*
X170437616Y-118482502D01*
X170534505Y-118248591D01*
X170570425Y-118098971D01*
X170592454Y-118007216D01*
X170592455Y-118007210D01*
X170593609Y-118002403D01*
X170613474Y-117750000D01*
X170593609Y-117497597D01*
X170534505Y-117251409D01*
X170497647Y-117162425D01*
X170439511Y-117022072D01*
X170439509Y-117022068D01*
X170437616Y-117017498D01*
X170305328Y-116801624D01*
X170140898Y-116609102D01*
X169948376Y-116444672D01*
X169732502Y-116312384D01*
X169727932Y-116310491D01*
X169727928Y-116310489D01*
X169503164Y-116217389D01*
X169503162Y-116217388D01*
X169498591Y-116215495D01*
X169413968Y-116195179D01*
X169257216Y-116157546D01*
X169257210Y-116157545D01*
X169252403Y-116156391D01*
X169152584Y-116148535D01*
X169065655Y-116141693D01*
X169065648Y-116141693D01*
X169063199Y-116141500D01*
X168936801Y-116141500D01*
X168934352Y-116141693D01*
X168934345Y-116141693D01*
X168847416Y-116148535D01*
X168747597Y-116156391D01*
X168742790Y-116157545D01*
X168742784Y-116157546D01*
X168586032Y-116195179D01*
X168501409Y-116215495D01*
X168496838Y-116217388D01*
X168496836Y-116217389D01*
X168272072Y-116310489D01*
X168272068Y-116310491D01*
X168267498Y-116312384D01*
X168051624Y-116444672D01*
X167859102Y-116609102D01*
X167694672Y-116801624D01*
X167562384Y-117017498D01*
X167560491Y-117022068D01*
X167560489Y-117022072D01*
X167502353Y-117162425D01*
X167465495Y-117251409D01*
X167406391Y-117497597D01*
X167386526Y-117750000D01*
X110936868Y-117750000D01*
X110951745Y-117710316D01*
X110958500Y-117648134D01*
X110958500Y-115851866D01*
X110951745Y-115789684D01*
X110900615Y-115653295D01*
X110813261Y-115536739D01*
X110696705Y-115449385D01*
X110560316Y-115398255D01*
X110498134Y-115391500D01*
X108701866Y-115391500D01*
X108639684Y-115398255D01*
X108503295Y-115449385D01*
X108386739Y-115536739D01*
X108299385Y-115653295D01*
X108296233Y-115661703D01*
X108254919Y-115771907D01*
X108212277Y-115828671D01*
X108145716Y-115853371D01*
X108076367Y-115838163D01*
X108043743Y-115812476D01*
X107993151Y-115756875D01*
X107993142Y-115756866D01*
X107989670Y-115753051D01*
X107985619Y-115749852D01*
X107985615Y-115749848D01*
X107818414Y-115617800D01*
X107818410Y-115617798D01*
X107814359Y-115614598D01*
X107618789Y-115506638D01*
X107613920Y-115504914D01*
X107613916Y-115504912D01*
X107413087Y-115433795D01*
X107413083Y-115433794D01*
X107408212Y-115432069D01*
X107403119Y-115431162D01*
X107403116Y-115431161D01*
X107193373Y-115393800D01*
X107193367Y-115393799D01*
X107188284Y-115392894D01*
X107114452Y-115391992D01*
X106970081Y-115390228D01*
X106970079Y-115390228D01*
X106964911Y-115390165D01*
X106744091Y-115423955D01*
X106531756Y-115493357D01*
X106333607Y-115596507D01*
X106329474Y-115599610D01*
X106329471Y-115599612D01*
X106159100Y-115727530D01*
X106154965Y-115730635D01*
X106115525Y-115771907D01*
X106061280Y-115828671D01*
X106000629Y-115892138D01*
X105874743Y-116076680D01*
X105872564Y-116081375D01*
X105810844Y-116214340D01*
X105780688Y-116279305D01*
X105720989Y-116494570D01*
X105697251Y-116716695D01*
X75232791Y-116716695D01*
X75140898Y-116609102D01*
X74948376Y-116444672D01*
X74732502Y-116312384D01*
X74727932Y-116310491D01*
X74727928Y-116310489D01*
X74503164Y-116217389D01*
X74503162Y-116217388D01*
X74498591Y-116215495D01*
X74413968Y-116195179D01*
X74257216Y-116157546D01*
X74257210Y-116157545D01*
X74252403Y-116156391D01*
X74152584Y-116148535D01*
X74065655Y-116141693D01*
X74065648Y-116141693D01*
X74063199Y-116141500D01*
X73936801Y-116141500D01*
X73934352Y-116141693D01*
X73934345Y-116141693D01*
X73847416Y-116148535D01*
X73747597Y-116156391D01*
X73742790Y-116157545D01*
X73742784Y-116157546D01*
X73586032Y-116195179D01*
X73501409Y-116215495D01*
X73496838Y-116217388D01*
X73496836Y-116217389D01*
X73272072Y-116310489D01*
X73272068Y-116310491D01*
X73267498Y-116312384D01*
X73051624Y-116444672D01*
X72859102Y-116609102D01*
X72694672Y-116801624D01*
X72562384Y-117017498D01*
X72560491Y-117022068D01*
X72560489Y-117022072D01*
X72502353Y-117162425D01*
X72465495Y-117251409D01*
X72406391Y-117497597D01*
X72386526Y-117750000D01*
X72008500Y-117750000D01*
X72008500Y-112782966D01*
X166168257Y-112782966D01*
X166198565Y-112917446D01*
X166201645Y-112927275D01*
X166281770Y-113124603D01*
X166286413Y-113133794D01*
X166397694Y-113315388D01*
X166403777Y-113323699D01*
X166543213Y-113484667D01*
X166550580Y-113491883D01*
X166714434Y-113627916D01*
X166722881Y-113633831D01*
X166906756Y-113741279D01*
X166916042Y-113745729D01*
X167115001Y-113821703D01*
X167124899Y-113824579D01*
X167228250Y-113845606D01*
X167242299Y-113844410D01*
X167246000Y-113834065D01*
X167246000Y-113833517D01*
X167754000Y-113833517D01*
X167758064Y-113847359D01*
X167771478Y-113849393D01*
X167778184Y-113848534D01*
X167788262Y-113846392D01*
X167992255Y-113785191D01*
X168001842Y-113781433D01*
X168193095Y-113687739D01*
X168201945Y-113682464D01*
X168375328Y-113558792D01*
X168383200Y-113552139D01*
X168534052Y-113401812D01*
X168540730Y-113393965D01*
X168665003Y-113221020D01*
X168670313Y-113212183D01*
X168764670Y-113021267D01*
X168768469Y-113011672D01*
X168830377Y-112807910D01*
X168832555Y-112797837D01*
X168833986Y-112786962D01*
X168831775Y-112772778D01*
X168818617Y-112769000D01*
X167772115Y-112769000D01*
X167756876Y-112773475D01*
X167755671Y-112774865D01*
X167754000Y-112782548D01*
X167754000Y-113833517D01*
X167246000Y-113833517D01*
X167246000Y-112787115D01*
X167241525Y-112771876D01*
X167240135Y-112770671D01*
X167232452Y-112769000D01*
X166183225Y-112769000D01*
X166169694Y-112772973D01*
X166168257Y-112782966D01*
X72008500Y-112782966D01*
X72008500Y-110873134D01*
X166141500Y-110873134D01*
X166148255Y-110935316D01*
X166199385Y-111071705D01*
X166286739Y-111188261D01*
X166403295Y-111275615D01*
X166411704Y-111278767D01*
X166411705Y-111278768D01*
X166520960Y-111319726D01*
X166577725Y-111362367D01*
X166602425Y-111428929D01*
X166587218Y-111498278D01*
X166567825Y-111524759D01*
X166444590Y-111653717D01*
X166438104Y-111661727D01*
X166318098Y-111837649D01*
X166313000Y-111846623D01*
X166223338Y-112039783D01*
X166219775Y-112049470D01*
X166164389Y-112249183D01*
X166165912Y-112257607D01*
X166178292Y-112261000D01*
X168818344Y-112261000D01*
X168831875Y-112257027D01*
X168833180Y-112247947D01*
X168791214Y-112080875D01*
X168787894Y-112071124D01*
X168702972Y-111875814D01*
X168698105Y-111866739D01*
X168582426Y-111687926D01*
X168576136Y-111679757D01*
X168432293Y-111521677D01*
X168401241Y-111457831D01*
X168409635Y-111387333D01*
X168454812Y-111332564D01*
X168481256Y-111318895D01*
X168588297Y-111278767D01*
X168596705Y-111275615D01*
X168713261Y-111188261D01*
X168800615Y-111071705D01*
X168851745Y-110935316D01*
X168858500Y-110873134D01*
X168858500Y-109076866D01*
X168851745Y-109014684D01*
X168800615Y-108878295D01*
X168713261Y-108761739D01*
X168596705Y-108674385D01*
X168460316Y-108623255D01*
X168398134Y-108616500D01*
X166601866Y-108616500D01*
X166539684Y-108623255D01*
X166403295Y-108674385D01*
X166286739Y-108761739D01*
X166199385Y-108878295D01*
X166148255Y-109014684D01*
X166141500Y-109076866D01*
X166141500Y-110873134D01*
X72008500Y-110873134D01*
X72008500Y-105250000D01*
X109086496Y-105250000D01*
X109106458Y-105439928D01*
X109165473Y-105621556D01*
X109260960Y-105786944D01*
X109388747Y-105928866D01*
X109543248Y-106041118D01*
X109549276Y-106043802D01*
X109549278Y-106043803D01*
X109711681Y-106116109D01*
X109717712Y-106118794D01*
X109811112Y-106138647D01*
X109898056Y-106157128D01*
X109898061Y-106157128D01*
X109904513Y-106158500D01*
X110095487Y-106158500D01*
X110101939Y-106157128D01*
X110101944Y-106157128D01*
X110188888Y-106138647D01*
X110282288Y-106118794D01*
X110288319Y-106116109D01*
X110450722Y-106043803D01*
X110450724Y-106043802D01*
X110456752Y-106041118D01*
X110611253Y-105928866D01*
X110739040Y-105786944D01*
X110834527Y-105621556D01*
X110893542Y-105439928D01*
X110913504Y-105250000D01*
X110893542Y-105060072D01*
X110834527Y-104878444D01*
X110775444Y-104776109D01*
X110758563Y-104713110D01*
X110758563Y-103286890D01*
X110775444Y-103223890D01*
X110831223Y-103127279D01*
X110831224Y-103127278D01*
X110834527Y-103121556D01*
X110893542Y-102939928D01*
X110897500Y-102902275D01*
X110912814Y-102756565D01*
X110913504Y-102750000D01*
X110893542Y-102560072D01*
X110834527Y-102378444D01*
X110739040Y-102213056D01*
X110611253Y-102071134D01*
X110456752Y-101958882D01*
X110450724Y-101956198D01*
X110450722Y-101956197D01*
X110288319Y-101883891D01*
X110288318Y-101883891D01*
X110282288Y-101881206D01*
X110188887Y-101861353D01*
X110101944Y-101842872D01*
X110101939Y-101842872D01*
X110095487Y-101841500D01*
X109904513Y-101841500D01*
X109898061Y-101842872D01*
X109898056Y-101842872D01*
X109811112Y-101861353D01*
X109717712Y-101881206D01*
X109711682Y-101883891D01*
X109711681Y-101883891D01*
X109549278Y-101956197D01*
X109549276Y-101956198D01*
X109543248Y-101958882D01*
X109388747Y-102071134D01*
X109260960Y-102213056D01*
X109165473Y-102378444D01*
X109106458Y-102560072D01*
X109086496Y-102750000D01*
X109087186Y-102756565D01*
X109102501Y-102902275D01*
X109106458Y-102939928D01*
X109165473Y-103121556D01*
X109168776Y-103127278D01*
X109168777Y-103127279D01*
X109224556Y-103223890D01*
X109241437Y-103286890D01*
X109241437Y-104713110D01*
X109224556Y-104776109D01*
X109165473Y-104878444D01*
X109106458Y-105060072D01*
X109086496Y-105250000D01*
X72008500Y-105250000D01*
X72008500Y-102757966D01*
X75373257Y-102757966D01*
X75403565Y-102892446D01*
X75406645Y-102902275D01*
X75486770Y-103099603D01*
X75491413Y-103108794D01*
X75602694Y-103290388D01*
X75608777Y-103298699D01*
X75748213Y-103459667D01*
X75755580Y-103466883D01*
X75919434Y-103602916D01*
X75927881Y-103608831D01*
X76111756Y-103716279D01*
X76121042Y-103720729D01*
X76320001Y-103796703D01*
X76329899Y-103799579D01*
X76433250Y-103820606D01*
X76447299Y-103819410D01*
X76451000Y-103809065D01*
X76451000Y-103808517D01*
X76959000Y-103808517D01*
X76963064Y-103822359D01*
X76976478Y-103824393D01*
X76983184Y-103823534D01*
X76993262Y-103821392D01*
X77197255Y-103760191D01*
X77206842Y-103756433D01*
X77398095Y-103662739D01*
X77406945Y-103657464D01*
X77580328Y-103533792D01*
X77588200Y-103527139D01*
X77739052Y-103376812D01*
X77745730Y-103368965D01*
X77870003Y-103196020D01*
X77875313Y-103187183D01*
X77969670Y-102996267D01*
X77973469Y-102986672D01*
X78035377Y-102782910D01*
X78037555Y-102772837D01*
X78038986Y-102761962D01*
X78036775Y-102747778D01*
X78023617Y-102744000D01*
X76977115Y-102744000D01*
X76961876Y-102748475D01*
X76960671Y-102749865D01*
X76959000Y-102757548D01*
X76959000Y-103808517D01*
X76451000Y-103808517D01*
X76451000Y-102762115D01*
X76446525Y-102746876D01*
X76445135Y-102745671D01*
X76437452Y-102744000D01*
X75388225Y-102744000D01*
X75374694Y-102747973D01*
X75373257Y-102757966D01*
X72008500Y-102757966D01*
X72008500Y-100848134D01*
X75346500Y-100848134D01*
X75353255Y-100910316D01*
X75404385Y-101046705D01*
X75491739Y-101163261D01*
X75608295Y-101250615D01*
X75616704Y-101253767D01*
X75616705Y-101253768D01*
X75725960Y-101294726D01*
X75782725Y-101337367D01*
X75807425Y-101403929D01*
X75792218Y-101473278D01*
X75772825Y-101499759D01*
X75649590Y-101628717D01*
X75643104Y-101636727D01*
X75523098Y-101812649D01*
X75518000Y-101821623D01*
X75428338Y-102014783D01*
X75424775Y-102024470D01*
X75369389Y-102224183D01*
X75370912Y-102232607D01*
X75383292Y-102236000D01*
X78023344Y-102236000D01*
X78036875Y-102232027D01*
X78038180Y-102222947D01*
X77996214Y-102055875D01*
X77992894Y-102046124D01*
X77907972Y-101850814D01*
X77903105Y-101841739D01*
X77787426Y-101662926D01*
X77781136Y-101654757D01*
X77637293Y-101496677D01*
X77606241Y-101432831D01*
X77614635Y-101362333D01*
X77659812Y-101307564D01*
X77686256Y-101293895D01*
X77793297Y-101253767D01*
X77801705Y-101250615D01*
X77918261Y-101163261D01*
X78005615Y-101046705D01*
X78056745Y-100910316D01*
X78063500Y-100848134D01*
X78063500Y-99051866D01*
X78056745Y-98989684D01*
X78005615Y-98853295D01*
X77918261Y-98736739D01*
X77801705Y-98649385D01*
X77665316Y-98598255D01*
X77603134Y-98591500D01*
X75806866Y-98591500D01*
X75744684Y-98598255D01*
X75608295Y-98649385D01*
X75491739Y-98736739D01*
X75404385Y-98853295D01*
X75353255Y-98989684D01*
X75346500Y-99051866D01*
X75346500Y-100848134D01*
X72008500Y-100848134D01*
X72008500Y-82250000D01*
X120086496Y-82250000D01*
X120106458Y-82439928D01*
X120165473Y-82621556D01*
X120260960Y-82786944D01*
X120388747Y-82928866D01*
X120543248Y-83041118D01*
X120549276Y-83043802D01*
X120549278Y-83043803D01*
X120711681Y-83116109D01*
X120717712Y-83118794D01*
X120811112Y-83138647D01*
X120898056Y-83157128D01*
X120898061Y-83157128D01*
X120904513Y-83158500D01*
X121095487Y-83158500D01*
X121101939Y-83157128D01*
X121101944Y-83157128D01*
X121188888Y-83138647D01*
X121282288Y-83118794D01*
X121288319Y-83116109D01*
X121450722Y-83043803D01*
X121450724Y-83043802D01*
X121456752Y-83041118D01*
X121611253Y-82928866D01*
X121739040Y-82786944D01*
X121834527Y-82621556D01*
X121893542Y-82439928D01*
X121913504Y-82250000D01*
X121893542Y-82060072D01*
X121834527Y-81878444D01*
X121775444Y-81776109D01*
X121758563Y-81713110D01*
X121758563Y-79771695D01*
X166387251Y-79771695D01*
X166387548Y-79776848D01*
X166387548Y-79776851D01*
X166393011Y-79871590D01*
X166400110Y-79994715D01*
X166401247Y-79999761D01*
X166401248Y-79999767D01*
X166421119Y-80087939D01*
X166449222Y-80212639D01*
X166533266Y-80419616D01*
X166649987Y-80610088D01*
X166796250Y-80778938D01*
X166968126Y-80921632D01*
X167161000Y-81034338D01*
X167369692Y-81114030D01*
X167374760Y-81115061D01*
X167374763Y-81115062D01*
X167482017Y-81136883D01*
X167588597Y-81158567D01*
X167593772Y-81158757D01*
X167593774Y-81158757D01*
X167806673Y-81166564D01*
X167806677Y-81166564D01*
X167811837Y-81166753D01*
X167816957Y-81166097D01*
X167816959Y-81166097D01*
X168028288Y-81139025D01*
X168028289Y-81139025D01*
X168033416Y-81138368D01*
X168038366Y-81136883D01*
X168242429Y-81075661D01*
X168242434Y-81075659D01*
X168247384Y-81074174D01*
X168447994Y-80975896D01*
X168629860Y-80846173D01*
X168788096Y-80688489D01*
X168847594Y-80605689D01*
X168915435Y-80511277D01*
X168918453Y-80507077D01*
X169017430Y-80306811D01*
X169082370Y-80093069D01*
X169111529Y-79871590D01*
X169113156Y-79805000D01*
X169094852Y-79582361D01*
X169040431Y-79365702D01*
X168951354Y-79160840D01*
X168830014Y-78973277D01*
X168679670Y-78808051D01*
X168675619Y-78804852D01*
X168675615Y-78804848D01*
X168508414Y-78672800D01*
X168508410Y-78672798D01*
X168504359Y-78669598D01*
X168463053Y-78646796D01*
X168413084Y-78596364D01*
X168398312Y-78526921D01*
X168423428Y-78460516D01*
X168450780Y-78433909D01*
X168494603Y-78402650D01*
X168629860Y-78306173D01*
X168788096Y-78148489D01*
X168811966Y-78115271D01*
X168915435Y-77971277D01*
X168918453Y-77967077D01*
X168935115Y-77933365D01*
X169015136Y-77771453D01*
X169015137Y-77771451D01*
X169017430Y-77766811D01*
X169082370Y-77553069D01*
X169111529Y-77331590D01*
X169113156Y-77265000D01*
X169094852Y-77042361D01*
X169040431Y-76825702D01*
X168951354Y-76620840D01*
X168830014Y-76433277D01*
X168826540Y-76429459D01*
X168826533Y-76429450D01*
X168682435Y-76271088D01*
X168651383Y-76207242D01*
X168659779Y-76136744D01*
X168704956Y-76081976D01*
X168731400Y-76068307D01*
X168838052Y-76028325D01*
X168853649Y-76019786D01*
X168955724Y-75943285D01*
X168968285Y-75930724D01*
X169044786Y-75828649D01*
X169053324Y-75813054D01*
X169098478Y-75692606D01*
X169102105Y-75677351D01*
X169107631Y-75626486D01*
X169108000Y-75619672D01*
X169108000Y-74997115D01*
X169103525Y-74981876D01*
X169102135Y-74980671D01*
X169094452Y-74979000D01*
X166410116Y-74979000D01*
X166394877Y-74983475D01*
X166393672Y-74984865D01*
X166392001Y-74992548D01*
X166392001Y-75619669D01*
X166392371Y-75626490D01*
X166397895Y-75677352D01*
X166401521Y-75692604D01*
X166446676Y-75813054D01*
X166455214Y-75828649D01*
X166531715Y-75930724D01*
X166544276Y-75943285D01*
X166646351Y-76019786D01*
X166661946Y-76028324D01*
X166770827Y-76069142D01*
X166827591Y-76111784D01*
X166852291Y-76178345D01*
X166837083Y-76247694D01*
X166817691Y-76274175D01*
X166694200Y-76403401D01*
X166690629Y-76407138D01*
X166564743Y-76591680D01*
X166470688Y-76794305D01*
X166410989Y-77009570D01*
X166387251Y-77231695D01*
X166387548Y-77236848D01*
X166387548Y-77236851D01*
X166393011Y-77331590D01*
X166400110Y-77454715D01*
X166401247Y-77459761D01*
X166401248Y-77459767D01*
X166421119Y-77547939D01*
X166449222Y-77672639D01*
X166533266Y-77879616D01*
X166649987Y-78070088D01*
X166796250Y-78238938D01*
X166968126Y-78381632D01*
X167038595Y-78422811D01*
X167041445Y-78424476D01*
X167090169Y-78476114D01*
X167103240Y-78545897D01*
X167076509Y-78611669D01*
X167036055Y-78645027D01*
X167023607Y-78651507D01*
X167019474Y-78654610D01*
X167019471Y-78654612D01*
X166905745Y-78740000D01*
X166844965Y-78785635D01*
X166690629Y-78947138D01*
X166564743Y-79131680D01*
X166470688Y-79334305D01*
X166410989Y-79549570D01*
X166387251Y-79771695D01*
X121758563Y-79771695D01*
X121758563Y-78740000D01*
X163043496Y-78740000D01*
X163063458Y-78929928D01*
X163122473Y-79111556D01*
X163125776Y-79117278D01*
X163125777Y-79117279D01*
X163136802Y-79136375D01*
X163217960Y-79276944D01*
X163222378Y-79281851D01*
X163222379Y-79281852D01*
X163269608Y-79334305D01*
X163345747Y-79418866D01*
X163500248Y-79531118D01*
X163506276Y-79533802D01*
X163506278Y-79533803D01*
X163604069Y-79577342D01*
X163674712Y-79608794D01*
X163768113Y-79628647D01*
X163855056Y-79647128D01*
X163855061Y-79647128D01*
X163861513Y-79648500D01*
X164052487Y-79648500D01*
X164058939Y-79647128D01*
X164058944Y-79647128D01*
X164145887Y-79628647D01*
X164239288Y-79608794D01*
X164309931Y-79577342D01*
X164407722Y-79533803D01*
X164407724Y-79533802D01*
X164413752Y-79531118D01*
X164568253Y-79418866D01*
X164644392Y-79334305D01*
X164691621Y-79281852D01*
X164691622Y-79281851D01*
X164696040Y-79276944D01*
X164777198Y-79136375D01*
X164788223Y-79117279D01*
X164788224Y-79117278D01*
X164791527Y-79111556D01*
X164850542Y-78929928D01*
X164870504Y-78740000D01*
X164862842Y-78667104D01*
X164851232Y-78556635D01*
X164851232Y-78556633D01*
X164850542Y-78550072D01*
X164791527Y-78368444D01*
X164732444Y-78266109D01*
X164715563Y-78203110D01*
X164715563Y-76355890D01*
X164732444Y-76292890D01*
X164788223Y-76196279D01*
X164788224Y-76196278D01*
X164791527Y-76190556D01*
X164850542Y-76008928D01*
X164857897Y-75938955D01*
X164869814Y-75825565D01*
X164870504Y-75819000D01*
X164857220Y-75692606D01*
X164851232Y-75635635D01*
X164851232Y-75635633D01*
X164850542Y-75629072D01*
X164791527Y-75447444D01*
X164696040Y-75282056D01*
X164568253Y-75140134D01*
X164413752Y-75027882D01*
X164407724Y-75025198D01*
X164407722Y-75025197D01*
X164245319Y-74952891D01*
X164245318Y-74952891D01*
X164239288Y-74950206D01*
X164145888Y-74930353D01*
X164058944Y-74911872D01*
X164058939Y-74911872D01*
X164052487Y-74910500D01*
X163861513Y-74910500D01*
X163855061Y-74911872D01*
X163855056Y-74911872D01*
X163768112Y-74930353D01*
X163674712Y-74950206D01*
X163668682Y-74952891D01*
X163668681Y-74952891D01*
X163506278Y-75025197D01*
X163506276Y-75025198D01*
X163500248Y-75027882D01*
X163345747Y-75140134D01*
X163217960Y-75282056D01*
X163122473Y-75447444D01*
X163063458Y-75629072D01*
X163062768Y-75635633D01*
X163062768Y-75635635D01*
X163056780Y-75692606D01*
X163043496Y-75819000D01*
X163044186Y-75825565D01*
X163056104Y-75938955D01*
X163063458Y-76008928D01*
X163122473Y-76190556D01*
X163125776Y-76196278D01*
X163125777Y-76196279D01*
X163181556Y-76292890D01*
X163198437Y-76355890D01*
X163198437Y-78203110D01*
X163181556Y-78266109D01*
X163122473Y-78368444D01*
X163063458Y-78550072D01*
X163062768Y-78556633D01*
X163062768Y-78556635D01*
X163051158Y-78667104D01*
X163043496Y-78740000D01*
X121758563Y-78740000D01*
X121758563Y-78286890D01*
X121775444Y-78223890D01*
X121787442Y-78203110D01*
X121834527Y-78121556D01*
X121893542Y-77939928D01*
X121913504Y-77750000D01*
X121893542Y-77560072D01*
X121834527Y-77378444D01*
X121739040Y-77213056D01*
X121611253Y-77071134D01*
X121456752Y-76958882D01*
X121450724Y-76956198D01*
X121450722Y-76956197D01*
X121288319Y-76883891D01*
X121288318Y-76883891D01*
X121282288Y-76881206D01*
X121188887Y-76861353D01*
X121101944Y-76842872D01*
X121101939Y-76842872D01*
X121095487Y-76841500D01*
X120904513Y-76841500D01*
X120898061Y-76842872D01*
X120898056Y-76842872D01*
X120811113Y-76861353D01*
X120717712Y-76881206D01*
X120711682Y-76883891D01*
X120711681Y-76883891D01*
X120549278Y-76956197D01*
X120549276Y-76956198D01*
X120543248Y-76958882D01*
X120388747Y-77071134D01*
X120260960Y-77213056D01*
X120165473Y-77378444D01*
X120106458Y-77560072D01*
X120086496Y-77750000D01*
X120106458Y-77939928D01*
X120165473Y-78121556D01*
X120212559Y-78203110D01*
X120224556Y-78223890D01*
X120241437Y-78286890D01*
X120241437Y-81713110D01*
X120224556Y-81776109D01*
X120165473Y-81878444D01*
X120106458Y-82060072D01*
X120086496Y-82250000D01*
X72008500Y-82250000D01*
X72008500Y-74452885D01*
X166392000Y-74452885D01*
X166396475Y-74468124D01*
X166397865Y-74469329D01*
X166405548Y-74471000D01*
X167477885Y-74471000D01*
X167493124Y-74466525D01*
X167494329Y-74465135D01*
X167496000Y-74457452D01*
X167496000Y-74452885D01*
X168004000Y-74452885D01*
X168008475Y-74468124D01*
X168009865Y-74469329D01*
X168017548Y-74471000D01*
X169089884Y-74471000D01*
X169105123Y-74466525D01*
X169106328Y-74465135D01*
X169107999Y-74457452D01*
X169107999Y-73830331D01*
X169107629Y-73823510D01*
X169102105Y-73772648D01*
X169098479Y-73757396D01*
X169053324Y-73636946D01*
X169044786Y-73621351D01*
X168968285Y-73519276D01*
X168955724Y-73506715D01*
X168853649Y-73430214D01*
X168838054Y-73421676D01*
X168717606Y-73376522D01*
X168702351Y-73372895D01*
X168651486Y-73367369D01*
X168644672Y-73367000D01*
X168022115Y-73367000D01*
X168006876Y-73371475D01*
X168005671Y-73372865D01*
X168004000Y-73380548D01*
X168004000Y-74452885D01*
X167496000Y-74452885D01*
X167496000Y-73385116D01*
X167491525Y-73369877D01*
X167490135Y-73368672D01*
X167482452Y-73367001D01*
X166855331Y-73367001D01*
X166848510Y-73367371D01*
X166797648Y-73372895D01*
X166782396Y-73376521D01*
X166661946Y-73421676D01*
X166646351Y-73430214D01*
X166544276Y-73506715D01*
X166531715Y-73519276D01*
X166455214Y-73621351D01*
X166446676Y-73636946D01*
X166401522Y-73757394D01*
X166397895Y-73772649D01*
X166392369Y-73823514D01*
X166392000Y-73830328D01*
X166392000Y-74452885D01*
X72008500Y-74452885D01*
X72008500Y-60250000D01*
X76836496Y-60250000D01*
X76837186Y-60256565D01*
X76850996Y-60387956D01*
X76856458Y-60439928D01*
X76915473Y-60621556D01*
X77010960Y-60786944D01*
X77015378Y-60791851D01*
X77015379Y-60791852D01*
X77037694Y-60816635D01*
X77138747Y-60928866D01*
X77293248Y-61041118D01*
X77299276Y-61043802D01*
X77299278Y-61043803D01*
X77350560Y-61066635D01*
X77467712Y-61118794D01*
X77474167Y-61120166D01*
X77474176Y-61120169D01*
X77530659Y-61132175D01*
X77593556Y-61166326D01*
X78166184Y-61738954D01*
X78178571Y-61753366D01*
X78191445Y-61770861D01*
X78210376Y-61786944D01*
X78231727Y-61805083D01*
X78239243Y-61812013D01*
X78244935Y-61817705D01*
X78247811Y-61819980D01*
X78247815Y-61819984D01*
X78267211Y-61835330D01*
X78270591Y-61838101D01*
X78326250Y-61885386D01*
X78332767Y-61888714D01*
X78337802Y-61892072D01*
X78342946Y-61895249D01*
X78348683Y-61899788D01*
X78355305Y-61902883D01*
X78355315Y-61902889D01*
X78414826Y-61930702D01*
X78418778Y-61932633D01*
X78477270Y-61962501D01*
X78477272Y-61962502D01*
X78483786Y-61965828D01*
X78490894Y-61967567D01*
X78496558Y-61969674D01*
X78502301Y-61971585D01*
X78508931Y-61974683D01*
X78516091Y-61976172D01*
X78516093Y-61976173D01*
X78580422Y-61989553D01*
X78584693Y-61990520D01*
X78655602Y-62007871D01*
X78661202Y-62008218D01*
X78661206Y-62008219D01*
X78666757Y-62008563D01*
X78666755Y-62008598D01*
X78670728Y-62008838D01*
X78674949Y-62009215D01*
X78682109Y-62010704D01*
X78759526Y-62008609D01*
X78762934Y-62008563D01*
X83207500Y-62008563D01*
X83281560Y-62032626D01*
X83293248Y-62041118D01*
X83299276Y-62043802D01*
X83299278Y-62043803D01*
X83461681Y-62116109D01*
X83467712Y-62118794D01*
X83542680Y-62134729D01*
X83648056Y-62157128D01*
X83648061Y-62157128D01*
X83654513Y-62158500D01*
X83845487Y-62158500D01*
X83851939Y-62157128D01*
X83851944Y-62157128D01*
X83957320Y-62134729D01*
X84032288Y-62118794D01*
X84038319Y-62116109D01*
X84200722Y-62043803D01*
X84200724Y-62043802D01*
X84206752Y-62041118D01*
X84254349Y-62006537D01*
X84296141Y-61976173D01*
X84361253Y-61928866D01*
X84387435Y-61899788D01*
X84484621Y-61791852D01*
X84484622Y-61791851D01*
X84489040Y-61786944D01*
X84576922Y-61634729D01*
X84581223Y-61627279D01*
X84581224Y-61627278D01*
X84584527Y-61621556D01*
X84643542Y-61439928D01*
X84655512Y-61326045D01*
X84662814Y-61256565D01*
X84663504Y-61250000D01*
X84657190Y-61189928D01*
X84644232Y-61066635D01*
X84644232Y-61066633D01*
X84643542Y-61060072D01*
X84584527Y-60878444D01*
X84489040Y-60713056D01*
X84361253Y-60571134D01*
X84251560Y-60491437D01*
X84212094Y-60462763D01*
X84212093Y-60462762D01*
X84206752Y-60458882D01*
X84200724Y-60456198D01*
X84200722Y-60456197D01*
X84038319Y-60383891D01*
X84038318Y-60383891D01*
X84032288Y-60381206D01*
X83938887Y-60361353D01*
X83851944Y-60342872D01*
X83851939Y-60342872D01*
X83845487Y-60341500D01*
X83654513Y-60341500D01*
X83648061Y-60342872D01*
X83648056Y-60342872D01*
X83561113Y-60361353D01*
X83467712Y-60381206D01*
X83461682Y-60383891D01*
X83461681Y-60383891D01*
X83299278Y-60456197D01*
X83299276Y-60456198D01*
X83293248Y-60458882D01*
X83287503Y-60463056D01*
X83281560Y-60467374D01*
X83207500Y-60491437D01*
X79116397Y-60491437D01*
X79048276Y-60471435D01*
X79027302Y-60454532D01*
X78670082Y-60097312D01*
X78639344Y-60047153D01*
X78638819Y-60045535D01*
X78584527Y-59878444D01*
X78489040Y-59713056D01*
X78361253Y-59571134D01*
X78206752Y-59458882D01*
X78200724Y-59456198D01*
X78200722Y-59456197D01*
X78038319Y-59383891D01*
X78038318Y-59383891D01*
X78032288Y-59381206D01*
X77938888Y-59361353D01*
X77851944Y-59342872D01*
X77851939Y-59342872D01*
X77845487Y-59341500D01*
X77654513Y-59341500D01*
X77648061Y-59342872D01*
X77648056Y-59342872D01*
X77561112Y-59361353D01*
X77467712Y-59381206D01*
X77461682Y-59383891D01*
X77461681Y-59383891D01*
X77299278Y-59456197D01*
X77299276Y-59456198D01*
X77293248Y-59458882D01*
X77138747Y-59571134D01*
X77010960Y-59713056D01*
X76915473Y-59878444D01*
X76856458Y-60060072D01*
X76855768Y-60066633D01*
X76855768Y-60066635D01*
X76852544Y-60097312D01*
X76836496Y-60250000D01*
X72008500Y-60250000D01*
X72008500Y-55500000D01*
X92336496Y-55500000D01*
X92337186Y-55506565D01*
X92355001Y-55676062D01*
X92356458Y-55689928D01*
X92415473Y-55871556D01*
X92418776Y-55877278D01*
X92418777Y-55877279D01*
X92474556Y-55973890D01*
X92491437Y-56036890D01*
X92491437Y-59432927D01*
X92490004Y-59451878D01*
X92486738Y-59473346D01*
X92487331Y-59480638D01*
X92487331Y-59480641D01*
X92491022Y-59526016D01*
X92491437Y-59536231D01*
X92491437Y-59544293D01*
X92494114Y-59567251D01*
X92494726Y-59572503D01*
X92495158Y-59576868D01*
X92501078Y-59649649D01*
X92503334Y-59656614D01*
X92504517Y-59662534D01*
X92505909Y-59668423D01*
X92506757Y-59675695D01*
X92509255Y-59682577D01*
X92531665Y-59744315D01*
X92533092Y-59748473D01*
X92555591Y-59817925D01*
X92559391Y-59824187D01*
X92561895Y-59829656D01*
X92564610Y-59835077D01*
X92567110Y-59841966D01*
X92571126Y-59848091D01*
X92607128Y-59903003D01*
X92609475Y-59906722D01*
X92644446Y-59964353D01*
X92644449Y-59964357D01*
X92647355Y-59969146D01*
X92651064Y-59973345D01*
X92651067Y-59973350D01*
X92654753Y-59977523D01*
X92654726Y-59977547D01*
X92657381Y-59980541D01*
X92660083Y-59983772D01*
X92664095Y-59989892D01*
X92669407Y-59994924D01*
X92720323Y-60043157D01*
X92722765Y-60045535D01*
X98204532Y-65527302D01*
X98238558Y-65589614D01*
X98241437Y-65616397D01*
X98241437Y-69963110D01*
X98224556Y-70026109D01*
X98165473Y-70128444D01*
X98106458Y-70310072D01*
X98105768Y-70316633D01*
X98105768Y-70316635D01*
X98100428Y-70367444D01*
X98086496Y-70500000D01*
X98106458Y-70689928D01*
X98165473Y-70871556D01*
X98260960Y-71036944D01*
X98388747Y-71178866D01*
X98543248Y-71291118D01*
X98549276Y-71293802D01*
X98549278Y-71293803D01*
X98711681Y-71366109D01*
X98717712Y-71368794D01*
X98811113Y-71388647D01*
X98898056Y-71407128D01*
X98898061Y-71407128D01*
X98904513Y-71408500D01*
X99095487Y-71408500D01*
X99101939Y-71407128D01*
X99101944Y-71407128D01*
X99188887Y-71388647D01*
X99282288Y-71368794D01*
X99288319Y-71366109D01*
X99450722Y-71293803D01*
X99450724Y-71293802D01*
X99456752Y-71291118D01*
X99611253Y-71178866D01*
X99739040Y-71036944D01*
X99834527Y-70871556D01*
X99877597Y-70739000D01*
X149867440Y-70739000D01*
X149868130Y-70745565D01*
X149881974Y-70877279D01*
X149887402Y-70928928D01*
X149946417Y-71110556D01*
X150041904Y-71275944D01*
X150169691Y-71417866D01*
X150324192Y-71530118D01*
X150330220Y-71532802D01*
X150330222Y-71532803D01*
X150492625Y-71605109D01*
X150498656Y-71607794D01*
X150592057Y-71627647D01*
X150679000Y-71646128D01*
X150679005Y-71646128D01*
X150685457Y-71647500D01*
X150876431Y-71647500D01*
X150882883Y-71646128D01*
X150882888Y-71646128D01*
X150969831Y-71627647D01*
X151063232Y-71607794D01*
X151069263Y-71605109D01*
X151231666Y-71532803D01*
X151231668Y-71532802D01*
X151237696Y-71530118D01*
X151392197Y-71417866D01*
X151519984Y-71275944D01*
X151615471Y-71110556D01*
X151665425Y-70956813D01*
X151696162Y-70906656D01*
X152188412Y-70414405D01*
X152250725Y-70380380D01*
X152277508Y-70377500D01*
X152325543Y-70377500D01*
X152331995Y-70376128D01*
X152332000Y-70376128D01*
X152418944Y-70357647D01*
X152512344Y-70337794D01*
X152518375Y-70335109D01*
X152680778Y-70262803D01*
X152680780Y-70262802D01*
X152686808Y-70260118D01*
X152841309Y-70147866D01*
X152920303Y-70060134D01*
X152964677Y-70010852D01*
X152964678Y-70010851D01*
X152969096Y-70005944D01*
X153064583Y-69840556D01*
X153123598Y-69658928D01*
X153143560Y-69469000D01*
X153123598Y-69279072D01*
X153064583Y-69097444D01*
X152969096Y-68932056D01*
X152841309Y-68790134D01*
X152686808Y-68677882D01*
X152680780Y-68675198D01*
X152680778Y-68675197D01*
X152518375Y-68602891D01*
X152518374Y-68602891D01*
X152512344Y-68600206D01*
X152418943Y-68580353D01*
X152332000Y-68561872D01*
X152331995Y-68561872D01*
X152325543Y-68560500D01*
X152134569Y-68560500D01*
X152128117Y-68561872D01*
X152128112Y-68561872D01*
X152041169Y-68580353D01*
X151947768Y-68600206D01*
X151941738Y-68602891D01*
X151941737Y-68602891D01*
X151779334Y-68675197D01*
X151779332Y-68675198D01*
X151773304Y-68677882D01*
X151618803Y-68790134D01*
X151491016Y-68932056D01*
X151395529Y-69097444D01*
X151336514Y-69279072D01*
X151335824Y-69285633D01*
X151335824Y-69285635D01*
X151320072Y-69435513D01*
X151293059Y-69501170D01*
X151283857Y-69511438D01*
X150997681Y-69797614D01*
X150935369Y-69831640D01*
X150889544Y-69831750D01*
X150889459Y-69832563D01*
X150882888Y-69831872D01*
X150876431Y-69830500D01*
X150685457Y-69830500D01*
X150679005Y-69831872D01*
X150679000Y-69831872D01*
X150611223Y-69846279D01*
X150498656Y-69870206D01*
X150492626Y-69872891D01*
X150492625Y-69872891D01*
X150330222Y-69945197D01*
X150330220Y-69945198D01*
X150324192Y-69947882D01*
X150318851Y-69951762D01*
X150318850Y-69951763D01*
X150268787Y-69988136D01*
X150169691Y-70060134D01*
X150165270Y-70065044D01*
X150165269Y-70065045D01*
X150087201Y-70151749D01*
X150041904Y-70202056D01*
X149946417Y-70367444D01*
X149887402Y-70549072D01*
X149867440Y-70739000D01*
X99877597Y-70739000D01*
X99893542Y-70689928D01*
X99913504Y-70500000D01*
X99899572Y-70367444D01*
X99894232Y-70316635D01*
X99894232Y-70316633D01*
X99893542Y-70310072D01*
X99834527Y-70128444D01*
X99775444Y-70026109D01*
X99758563Y-69963110D01*
X99758563Y-65317073D01*
X99759996Y-65298122D01*
X99762162Y-65283887D01*
X99762162Y-65283884D01*
X99763262Y-65276654D01*
X99758978Y-65223984D01*
X99758563Y-65213769D01*
X99758563Y-65205707D01*
X99757456Y-65196206D01*
X99755274Y-65177497D01*
X99754841Y-65173121D01*
X99749515Y-65107647D01*
X99748922Y-65100351D01*
X99746666Y-65093386D01*
X99745483Y-65087466D01*
X99744091Y-65081577D01*
X99743243Y-65074305D01*
X99718329Y-65005666D01*
X99716907Y-65001524D01*
X99716413Y-65000000D01*
X132586496Y-65000000D01*
X132587186Y-65006565D01*
X132604692Y-65173121D01*
X132606458Y-65189928D01*
X132665473Y-65371556D01*
X132760960Y-65536944D01*
X132888747Y-65678866D01*
X133043248Y-65791118D01*
X133049276Y-65793802D01*
X133049278Y-65793803D01*
X133211681Y-65866109D01*
X133217712Y-65868794D01*
X133311112Y-65888647D01*
X133398056Y-65907128D01*
X133398061Y-65907128D01*
X133404513Y-65908500D01*
X133595487Y-65908500D01*
X133601939Y-65907128D01*
X133601944Y-65907128D01*
X133688888Y-65888647D01*
X133782288Y-65868794D01*
X133788319Y-65866109D01*
X133950722Y-65793803D01*
X133950724Y-65793802D01*
X133956752Y-65791118D01*
X134111253Y-65678866D01*
X134239040Y-65536944D01*
X134334527Y-65371556D01*
X134393542Y-65189928D01*
X134395309Y-65173121D01*
X134412814Y-65006565D01*
X134413504Y-65000000D01*
X134393542Y-64810072D01*
X134334527Y-64628444D01*
X134239040Y-64463056D01*
X134171420Y-64387956D01*
X134140702Y-64323949D01*
X134139056Y-64303646D01*
X134139056Y-62696354D01*
X134159058Y-62628233D01*
X134171420Y-62612044D01*
X134234621Y-62541852D01*
X134234622Y-62541851D01*
X134239040Y-62536944D01*
X134334527Y-62371556D01*
X134393542Y-62189928D01*
X134396990Y-62157128D01*
X134412814Y-62006565D01*
X134413504Y-62000000D01*
X134406028Y-61928866D01*
X134394232Y-61816635D01*
X134394232Y-61816633D01*
X134393542Y-61810072D01*
X134334527Y-61628444D01*
X134313990Y-61592872D01*
X134242341Y-61468774D01*
X134239040Y-61463056D01*
X134218216Y-61439928D01*
X134115675Y-61326045D01*
X134115674Y-61326044D01*
X134111253Y-61321134D01*
X133956752Y-61208882D01*
X133950724Y-61206198D01*
X133950722Y-61206197D01*
X133788319Y-61133891D01*
X133788318Y-61133891D01*
X133782288Y-61131206D01*
X133688888Y-61111353D01*
X133601944Y-61092872D01*
X133601939Y-61092872D01*
X133595487Y-61091500D01*
X133404513Y-61091500D01*
X133398061Y-61092872D01*
X133398056Y-61092872D01*
X133311112Y-61111353D01*
X133217712Y-61131206D01*
X133211682Y-61133891D01*
X133211681Y-61133891D01*
X133049278Y-61206197D01*
X133049276Y-61206198D01*
X133043248Y-61208882D01*
X132888747Y-61321134D01*
X132884326Y-61326044D01*
X132884325Y-61326045D01*
X132781785Y-61439928D01*
X132760960Y-61463056D01*
X132757659Y-61468774D01*
X132686011Y-61592872D01*
X132665473Y-61628444D01*
X132606458Y-61810072D01*
X132605768Y-61816633D01*
X132605768Y-61816635D01*
X132593972Y-61928866D01*
X132586496Y-62000000D01*
X132587186Y-62006565D01*
X132603011Y-62157128D01*
X132606458Y-62189928D01*
X132665473Y-62371556D01*
X132760960Y-62536944D01*
X132765378Y-62541851D01*
X132765379Y-62541852D01*
X132828580Y-62612044D01*
X132859298Y-62676051D01*
X132860944Y-62696354D01*
X132860944Y-64303646D01*
X132840942Y-64371767D01*
X132828580Y-64387956D01*
X132760960Y-64463056D01*
X132665473Y-64628444D01*
X132606458Y-64810072D01*
X132586496Y-65000000D01*
X99716413Y-65000000D01*
X99696667Y-64939044D01*
X99696666Y-64939041D01*
X99694409Y-64932075D01*
X99690609Y-64925813D01*
X99688105Y-64920344D01*
X99685390Y-64914923D01*
X99682890Y-64908034D01*
X99642865Y-64846986D01*
X99640525Y-64843278D01*
X99605554Y-64785647D01*
X99605551Y-64785643D01*
X99602645Y-64780854D01*
X99598936Y-64776655D01*
X99598933Y-64776650D01*
X99595247Y-64772477D01*
X99595274Y-64772453D01*
X99592619Y-64769459D01*
X99589917Y-64766228D01*
X99585905Y-64760108D01*
X99529677Y-64706843D01*
X99527235Y-64704465D01*
X94045468Y-59222698D01*
X94011442Y-59160386D01*
X94008563Y-59133603D01*
X94008563Y-56036890D01*
X94025444Y-55973890D01*
X94081223Y-55877279D01*
X94081224Y-55877278D01*
X94084527Y-55871556D01*
X94143542Y-55689928D01*
X94145000Y-55676062D01*
X94162814Y-55506565D01*
X94163504Y-55500000D01*
X94146681Y-55339938D01*
X94144232Y-55316635D01*
X94144232Y-55316633D01*
X94143542Y-55310072D01*
X94084527Y-55128444D01*
X93989040Y-54963056D01*
X93861253Y-54821134D01*
X93706752Y-54708882D01*
X93700724Y-54706198D01*
X93700722Y-54706197D01*
X93538319Y-54633891D01*
X93538318Y-54633891D01*
X93532288Y-54631206D01*
X93438888Y-54611353D01*
X93351944Y-54592872D01*
X93351939Y-54592872D01*
X93345487Y-54591500D01*
X93154513Y-54591500D01*
X93148061Y-54592872D01*
X93148056Y-54592872D01*
X93061113Y-54611353D01*
X92967712Y-54631206D01*
X92961682Y-54633891D01*
X92961681Y-54633891D01*
X92799278Y-54706197D01*
X92799276Y-54706198D01*
X92793248Y-54708882D01*
X92638747Y-54821134D01*
X92510960Y-54963056D01*
X92415473Y-55128444D01*
X92356458Y-55310072D01*
X92355768Y-55316633D01*
X92355768Y-55316635D01*
X92353319Y-55339938D01*
X92336496Y-55500000D01*
X72008500Y-55500000D01*
X72008500Y-47750000D01*
X89836496Y-47750000D01*
X89837186Y-47756565D01*
X89855686Y-47932580D01*
X89856458Y-47939928D01*
X89915473Y-48121556D01*
X89918776Y-48127278D01*
X89918777Y-48127279D01*
X89952686Y-48186010D01*
X90010960Y-48286944D01*
X90015378Y-48291851D01*
X90015379Y-48291852D01*
X90025950Y-48303592D01*
X90138747Y-48428866D01*
X90293248Y-48541118D01*
X90299276Y-48543802D01*
X90299278Y-48543803D01*
X90460556Y-48615608D01*
X90467712Y-48618794D01*
X90532570Y-48632580D01*
X90648056Y-48657128D01*
X90648061Y-48657128D01*
X90654513Y-48658500D01*
X90845487Y-48658500D01*
X90851939Y-48657128D01*
X90851944Y-48657128D01*
X90967430Y-48632580D01*
X91032288Y-48618794D01*
X91039444Y-48615608D01*
X91200722Y-48543803D01*
X91200724Y-48543802D01*
X91206752Y-48541118D01*
X91361253Y-48428866D01*
X91474050Y-48303592D01*
X91484621Y-48291852D01*
X91484622Y-48291851D01*
X91489040Y-48286944D01*
X91547314Y-48186010D01*
X91581223Y-48127279D01*
X91581224Y-48127278D01*
X91584527Y-48121556D01*
X91643542Y-47939928D01*
X91644315Y-47932580D01*
X91662814Y-47756565D01*
X91663504Y-47750000D01*
X91648116Y-47603592D01*
X91644232Y-47566635D01*
X91644232Y-47566633D01*
X91643542Y-47560072D01*
X91584527Y-47378444D01*
X91525444Y-47276109D01*
X91508563Y-47213110D01*
X91508563Y-46526834D01*
X91525444Y-46463834D01*
X91581223Y-46367223D01*
X91581224Y-46367222D01*
X91584527Y-46361500D01*
X91643542Y-46179872D01*
X91663504Y-45989944D01*
X91643542Y-45800016D01*
X91584527Y-45618388D01*
X91489040Y-45453000D01*
X91482184Y-45445385D01*
X91365675Y-45315989D01*
X91365674Y-45315988D01*
X91361253Y-45311078D01*
X91206752Y-45198826D01*
X91200724Y-45196142D01*
X91200722Y-45196141D01*
X91038319Y-45123835D01*
X91038318Y-45123835D01*
X91032288Y-45121150D01*
X90925630Y-45098479D01*
X90851944Y-45082816D01*
X90851939Y-45082816D01*
X90845487Y-45081444D01*
X90654513Y-45081444D01*
X90648061Y-45082816D01*
X90648056Y-45082816D01*
X90574370Y-45098479D01*
X90467712Y-45121150D01*
X90461682Y-45123835D01*
X90461681Y-45123835D01*
X90299278Y-45196141D01*
X90299276Y-45196142D01*
X90293248Y-45198826D01*
X90138747Y-45311078D01*
X90134326Y-45315988D01*
X90134325Y-45315989D01*
X90017817Y-45445385D01*
X90010960Y-45453000D01*
X89915473Y-45618388D01*
X89856458Y-45800016D01*
X89836496Y-45989944D01*
X89856458Y-46179872D01*
X89915473Y-46361500D01*
X89918776Y-46367222D01*
X89918777Y-46367223D01*
X89974556Y-46463834D01*
X89991437Y-46526834D01*
X89991437Y-47213110D01*
X89974556Y-47276109D01*
X89915473Y-47378444D01*
X89856458Y-47560072D01*
X89855768Y-47566633D01*
X89855768Y-47566635D01*
X89851884Y-47603592D01*
X89836496Y-47750000D01*
X72008500Y-47750000D01*
X72008500Y-42750000D01*
X72386526Y-42750000D01*
X72406391Y-43002403D01*
X72465495Y-43248591D01*
X72467388Y-43253162D01*
X72467389Y-43253164D01*
X72558817Y-43473890D01*
X72562384Y-43482502D01*
X72694672Y-43698376D01*
X72859102Y-43890898D01*
X73051624Y-44055328D01*
X73267498Y-44187616D01*
X73272068Y-44189509D01*
X73272072Y-44189511D01*
X73496836Y-44282611D01*
X73501409Y-44284505D01*
X73534453Y-44292438D01*
X73742784Y-44342454D01*
X73742790Y-44342455D01*
X73747597Y-44343609D01*
X73847416Y-44351465D01*
X73934345Y-44358307D01*
X73934352Y-44358307D01*
X73936801Y-44358500D01*
X74063199Y-44358500D01*
X74065648Y-44358307D01*
X74065655Y-44358307D01*
X74152584Y-44351465D01*
X74252403Y-44343609D01*
X74257210Y-44342455D01*
X74257216Y-44342454D01*
X74465547Y-44292438D01*
X74498591Y-44284505D01*
X74503164Y-44282611D01*
X74727928Y-44189511D01*
X74727932Y-44189509D01*
X74732502Y-44187616D01*
X74948376Y-44055328D01*
X75140898Y-43890898D01*
X75305328Y-43698376D01*
X75437616Y-43482502D01*
X75441184Y-43473890D01*
X75532611Y-43253164D01*
X75532612Y-43253162D01*
X75534505Y-43248591D01*
X75593609Y-43002403D01*
X75593798Y-43000000D01*
X97086496Y-43000000D01*
X97106458Y-43189928D01*
X97165473Y-43371556D01*
X97168776Y-43377278D01*
X97168777Y-43377279D01*
X97224556Y-43473890D01*
X97241437Y-43536890D01*
X97241437Y-59932927D01*
X97240004Y-59951878D01*
X97236738Y-59973346D01*
X97237331Y-59980638D01*
X97237331Y-59980641D01*
X97241022Y-60026016D01*
X97241437Y-60036231D01*
X97241437Y-60044293D01*
X97241861Y-60047927D01*
X97241861Y-60047933D01*
X97243276Y-60060072D01*
X97244671Y-60072029D01*
X97244726Y-60072503D01*
X97245158Y-60076868D01*
X97251078Y-60149649D01*
X97253334Y-60156614D01*
X97254517Y-60162534D01*
X97255909Y-60168423D01*
X97256757Y-60175695D01*
X97281346Y-60243435D01*
X97281665Y-60244315D01*
X97283092Y-60248473D01*
X97305591Y-60317925D01*
X97309391Y-60324187D01*
X97311895Y-60329656D01*
X97314610Y-60335077D01*
X97317110Y-60341966D01*
X97347263Y-60387956D01*
X97357128Y-60403003D01*
X97359475Y-60406722D01*
X97394446Y-60464353D01*
X97394449Y-60464357D01*
X97397355Y-60469146D01*
X97401064Y-60473345D01*
X97401067Y-60473350D01*
X97404753Y-60477523D01*
X97404726Y-60477547D01*
X97407381Y-60480541D01*
X97410083Y-60483772D01*
X97414095Y-60489892D01*
X97419407Y-60494924D01*
X97470323Y-60543157D01*
X97472765Y-60545535D01*
X99916184Y-62988954D01*
X99928571Y-63003366D01*
X99941445Y-63020861D01*
X99960376Y-63036944D01*
X99981727Y-63055083D01*
X99989243Y-63062013D01*
X99994935Y-63067705D01*
X99997809Y-63069979D01*
X99997816Y-63069985D01*
X100017197Y-63085318D01*
X100020601Y-63088109D01*
X100070668Y-63130645D01*
X100070675Y-63130650D01*
X100076250Y-63135386D01*
X100082766Y-63138713D01*
X100087789Y-63142063D01*
X100092947Y-63145249D01*
X100098683Y-63149787D01*
X100105308Y-63152883D01*
X100105309Y-63152884D01*
X100164817Y-63180697D01*
X100168766Y-63182628D01*
X100227263Y-63212498D01*
X100227269Y-63212500D01*
X100233786Y-63215828D01*
X100240896Y-63217568D01*
X100246579Y-63219681D01*
X100252300Y-63221584D01*
X100258930Y-63224683D01*
X100293653Y-63231905D01*
X100330407Y-63239550D01*
X100334697Y-63240521D01*
X100400149Y-63256537D01*
X100400153Y-63256538D01*
X100405602Y-63257871D01*
X100411202Y-63258218D01*
X100411206Y-63258219D01*
X100416757Y-63258563D01*
X100416755Y-63258599D01*
X100420750Y-63258838D01*
X100424941Y-63259212D01*
X100432109Y-63260703D01*
X100439426Y-63260505D01*
X100509489Y-63258609D01*
X100512897Y-63258563D01*
X104457500Y-63258563D01*
X104531560Y-63282626D01*
X104543248Y-63291118D01*
X104549276Y-63293802D01*
X104549278Y-63293803D01*
X104711681Y-63366109D01*
X104717712Y-63368794D01*
X104811113Y-63388647D01*
X104898056Y-63407128D01*
X104898061Y-63407128D01*
X104904513Y-63408500D01*
X105095487Y-63408500D01*
X105101939Y-63407128D01*
X105101944Y-63407128D01*
X105188887Y-63388647D01*
X105282288Y-63368794D01*
X105288319Y-63366109D01*
X105450722Y-63293803D01*
X105450724Y-63293802D01*
X105456752Y-63291118D01*
X105498615Y-63260703D01*
X105512157Y-63250864D01*
X105611253Y-63178866D01*
X105739040Y-63036944D01*
X105834527Y-62871556D01*
X105893542Y-62689928D01*
X105913504Y-62500000D01*
X105893542Y-62310072D01*
X105834527Y-62128444D01*
X105827406Y-62116109D01*
X105781869Y-62037238D01*
X105739040Y-61963056D01*
X105711752Y-61932749D01*
X105615675Y-61826045D01*
X105615674Y-61826044D01*
X105611253Y-61821134D01*
X105456752Y-61708882D01*
X105450724Y-61706198D01*
X105450722Y-61706197D01*
X105288319Y-61633891D01*
X105288318Y-61633891D01*
X105282288Y-61631206D01*
X105174242Y-61608240D01*
X105101944Y-61592872D01*
X105101939Y-61592872D01*
X105095487Y-61591500D01*
X104904513Y-61591500D01*
X104898061Y-61592872D01*
X104898056Y-61592872D01*
X104825758Y-61608240D01*
X104717712Y-61631206D01*
X104711682Y-61633891D01*
X104711681Y-61633891D01*
X104549278Y-61706197D01*
X104549276Y-61706198D01*
X104543248Y-61708882D01*
X104531560Y-61717374D01*
X104457500Y-61741437D01*
X103586902Y-61741437D01*
X103518781Y-61721435D01*
X103472288Y-61667779D01*
X103462184Y-61597505D01*
X103484899Y-61541543D01*
X103489040Y-61536944D01*
X103531700Y-61463056D01*
X103581223Y-61377279D01*
X103581224Y-61377278D01*
X103584527Y-61371556D01*
X103643542Y-61189928D01*
X103651019Y-61118794D01*
X103662814Y-61006565D01*
X103663504Y-61000000D01*
X103656028Y-60928866D01*
X103644232Y-60816635D01*
X103644232Y-60816633D01*
X103643542Y-60810072D01*
X103584527Y-60628444D01*
X103489040Y-60463056D01*
X103421420Y-60387956D01*
X103390702Y-60323949D01*
X103389056Y-60303646D01*
X103389056Y-56896000D01*
X143485496Y-56896000D01*
X143505458Y-57085928D01*
X143564473Y-57267556D01*
X143659960Y-57432944D01*
X143787747Y-57574866D01*
X143942248Y-57687118D01*
X143948276Y-57689802D01*
X143948278Y-57689803D01*
X144110681Y-57762109D01*
X144116712Y-57764794D01*
X144210113Y-57784647D01*
X144297056Y-57803128D01*
X144297061Y-57803128D01*
X144303513Y-57804500D01*
X144494487Y-57804500D01*
X144500939Y-57803128D01*
X144500944Y-57803128D01*
X144587887Y-57784647D01*
X144681288Y-57764794D01*
X144687319Y-57762109D01*
X144849722Y-57689803D01*
X144849724Y-57689802D01*
X144855752Y-57687118D01*
X145010253Y-57574866D01*
X145014676Y-57569954D01*
X145017489Y-57567421D01*
X145081496Y-57536703D01*
X145101801Y-57535056D01*
X150554199Y-57535056D01*
X150622320Y-57555058D01*
X150638511Y-57567421D01*
X150641324Y-57569954D01*
X150645747Y-57574866D01*
X150800248Y-57687118D01*
X150806276Y-57689802D01*
X150806278Y-57689803D01*
X150968681Y-57762109D01*
X150974712Y-57764794D01*
X151068113Y-57784647D01*
X151155056Y-57803128D01*
X151155061Y-57803128D01*
X151161513Y-57804500D01*
X151352487Y-57804500D01*
X151358939Y-57803128D01*
X151358944Y-57803128D01*
X151445887Y-57784647D01*
X151539288Y-57764794D01*
X151545319Y-57762109D01*
X151707722Y-57689803D01*
X151707724Y-57689802D01*
X151713752Y-57687118D01*
X151868253Y-57574866D01*
X151996040Y-57432944D01*
X152091527Y-57267556D01*
X152150542Y-57085928D01*
X152170504Y-56896000D01*
X152150542Y-56706072D01*
X152091527Y-56524444D01*
X151996040Y-56359056D01*
X151868253Y-56217134D01*
X151713752Y-56104882D01*
X151707724Y-56102198D01*
X151707722Y-56102197D01*
X151545319Y-56029891D01*
X151545318Y-56029891D01*
X151539288Y-56027206D01*
X151445887Y-56007353D01*
X151358944Y-55988872D01*
X151358939Y-55988872D01*
X151352487Y-55987500D01*
X151161513Y-55987500D01*
X151155061Y-55988872D01*
X151155056Y-55988872D01*
X151068113Y-56007353D01*
X150974712Y-56027206D01*
X150968682Y-56029891D01*
X150968681Y-56029891D01*
X150806278Y-56102197D01*
X150806276Y-56102198D01*
X150800248Y-56104882D01*
X150645747Y-56217134D01*
X150641325Y-56222045D01*
X150638511Y-56224579D01*
X150574504Y-56255297D01*
X150554199Y-56256944D01*
X145101801Y-56256944D01*
X145033680Y-56236942D01*
X145017489Y-56224579D01*
X145014675Y-56222045D01*
X145010253Y-56217134D01*
X144855752Y-56104882D01*
X144849724Y-56102198D01*
X144849722Y-56102197D01*
X144687319Y-56029891D01*
X144687318Y-56029891D01*
X144681288Y-56027206D01*
X144587887Y-56007353D01*
X144500944Y-55988872D01*
X144500939Y-55988872D01*
X144494487Y-55987500D01*
X144303513Y-55987500D01*
X144297061Y-55988872D01*
X144297056Y-55988872D01*
X144210113Y-56007353D01*
X144116712Y-56027206D01*
X144110682Y-56029891D01*
X144110681Y-56029891D01*
X143948278Y-56102197D01*
X143948276Y-56102198D01*
X143942248Y-56104882D01*
X143787747Y-56217134D01*
X143659960Y-56359056D01*
X143564473Y-56524444D01*
X143505458Y-56706072D01*
X143485496Y-56896000D01*
X103389056Y-56896000D01*
X103389056Y-54332695D01*
X138718251Y-54332695D01*
X138718548Y-54337848D01*
X138718548Y-54337851D01*
X138724011Y-54432590D01*
X138731110Y-54555715D01*
X138732247Y-54560761D01*
X138732248Y-54560767D01*
X138748123Y-54631206D01*
X138780222Y-54773639D01*
X138864266Y-54980616D01*
X138980987Y-55171088D01*
X139127250Y-55339938D01*
X139299126Y-55482632D01*
X139492000Y-55595338D01*
X139700692Y-55675030D01*
X139705760Y-55676061D01*
X139705763Y-55676062D01*
X139804775Y-55696206D01*
X139919597Y-55719567D01*
X139924772Y-55719757D01*
X139924774Y-55719757D01*
X140137673Y-55727564D01*
X140137677Y-55727564D01*
X140142837Y-55727753D01*
X140147957Y-55727097D01*
X140147959Y-55727097D01*
X140359288Y-55700025D01*
X140359289Y-55700025D01*
X140364416Y-55699368D01*
X140369366Y-55697883D01*
X140573429Y-55636661D01*
X140573434Y-55636659D01*
X140578384Y-55635174D01*
X140778994Y-55536896D01*
X140960860Y-55407173D01*
X141119096Y-55249489D01*
X141178594Y-55166689D01*
X141246435Y-55072277D01*
X141249453Y-55068077D01*
X141298532Y-54968774D01*
X141346136Y-54872453D01*
X141346137Y-54872451D01*
X141348430Y-54867811D01*
X141395537Y-54712763D01*
X141411865Y-54659023D01*
X141411865Y-54659021D01*
X141413370Y-54654069D01*
X141442529Y-54432590D01*
X141444156Y-54366000D01*
X141425852Y-54143361D01*
X141371431Y-53926702D01*
X141282354Y-53721840D01*
X141161014Y-53534277D01*
X141010670Y-53369051D01*
X141006619Y-53365852D01*
X141006615Y-53365848D01*
X140839414Y-53233800D01*
X140839410Y-53233798D01*
X140835359Y-53230598D01*
X140794053Y-53207796D01*
X140744084Y-53157364D01*
X140729312Y-53087921D01*
X140754428Y-53021516D01*
X140781780Y-52994909D01*
X140825603Y-52963650D01*
X140960860Y-52867173D01*
X141119096Y-52709489D01*
X141178594Y-52626689D01*
X141246435Y-52532277D01*
X141249453Y-52528077D01*
X141348430Y-52327811D01*
X141413370Y-52114069D01*
X141442529Y-51892590D01*
X141444156Y-51826000D01*
X141425852Y-51603361D01*
X141371431Y-51386702D01*
X141282354Y-51181840D01*
X141217688Y-51081882D01*
X141163822Y-50998617D01*
X141163820Y-50998614D01*
X141161014Y-50994277D01*
X141010670Y-50829051D01*
X141006619Y-50825852D01*
X141006615Y-50825848D01*
X140839414Y-50693800D01*
X140839410Y-50693798D01*
X140835359Y-50690598D01*
X140794053Y-50667796D01*
X140744084Y-50617364D01*
X140729312Y-50547921D01*
X140754428Y-50481516D01*
X140781780Y-50454909D01*
X140825603Y-50423650D01*
X140960860Y-50327173D01*
X141119096Y-50169489D01*
X141178594Y-50086689D01*
X141246435Y-49992277D01*
X141249453Y-49988077D01*
X141312257Y-49861003D01*
X141346136Y-49792453D01*
X141346137Y-49792451D01*
X141348430Y-49787811D01*
X141386011Y-49664118D01*
X141411865Y-49579023D01*
X141411865Y-49579021D01*
X141413370Y-49574069D01*
X141442529Y-49352590D01*
X141442611Y-49349240D01*
X141444074Y-49289365D01*
X141444074Y-49289361D01*
X141444156Y-49286000D01*
X141425852Y-49063361D01*
X141371431Y-48846702D01*
X141282354Y-48641840D01*
X141196716Y-48509464D01*
X141163822Y-48458617D01*
X141163820Y-48458614D01*
X141161014Y-48454277D01*
X141141425Y-48432749D01*
X141013798Y-48292488D01*
X140982746Y-48228642D01*
X140991141Y-48158143D01*
X141036317Y-48103375D01*
X141062761Y-48089706D01*
X141169297Y-48049767D01*
X141177705Y-48046615D01*
X141294261Y-47959261D01*
X141381615Y-47842705D01*
X141432745Y-47706316D01*
X141439500Y-47644134D01*
X141439500Y-45847866D01*
X141432745Y-45785684D01*
X141381615Y-45649295D01*
X141294261Y-45532739D01*
X141177705Y-45445385D01*
X141041316Y-45394255D01*
X140979134Y-45387500D01*
X139182866Y-45387500D01*
X139120684Y-45394255D01*
X138984295Y-45445385D01*
X138867739Y-45532739D01*
X138780385Y-45649295D01*
X138729255Y-45785684D01*
X138722500Y-45847866D01*
X138722500Y-47644134D01*
X138729255Y-47706316D01*
X138780385Y-47842705D01*
X138867739Y-47959261D01*
X138984295Y-48046615D01*
X138992704Y-48049767D01*
X138992705Y-48049768D01*
X139101451Y-48090535D01*
X139158216Y-48133176D01*
X139182916Y-48199738D01*
X139167709Y-48269087D01*
X139148316Y-48295568D01*
X139021629Y-48428138D01*
X139018715Y-48432410D01*
X139018714Y-48432411D01*
X139015573Y-48437016D01*
X138895743Y-48612680D01*
X138875111Y-48657128D01*
X138808114Y-48801462D01*
X138801688Y-48815305D01*
X138741989Y-49030570D01*
X138718251Y-49252695D01*
X138718548Y-49257848D01*
X138718548Y-49257851D01*
X138723838Y-49349600D01*
X138731110Y-49475715D01*
X138732247Y-49480761D01*
X138732248Y-49480767D01*
X138752119Y-49568939D01*
X138780222Y-49693639D01*
X138864266Y-49900616D01*
X138866965Y-49905020D01*
X138936850Y-50019062D01*
X138980987Y-50091088D01*
X139127250Y-50259938D01*
X139299126Y-50402632D01*
X139369595Y-50443811D01*
X139372445Y-50445476D01*
X139421169Y-50497114D01*
X139434240Y-50566897D01*
X139407509Y-50632669D01*
X139367055Y-50666027D01*
X139354607Y-50672507D01*
X139350474Y-50675610D01*
X139350471Y-50675612D01*
X139222763Y-50771498D01*
X139175965Y-50806635D01*
X139021629Y-50968138D01*
X139018715Y-50972410D01*
X139018714Y-50972411D01*
X138971607Y-51041468D01*
X138895743Y-51152680D01*
X138801688Y-51355305D01*
X138741989Y-51570570D01*
X138718251Y-51792695D01*
X138718548Y-51797848D01*
X138718548Y-51797851D01*
X138724011Y-51892590D01*
X138731110Y-52015715D01*
X138732247Y-52020761D01*
X138732248Y-52020767D01*
X138752119Y-52108939D01*
X138780222Y-52233639D01*
X138864266Y-52440616D01*
X138980987Y-52631088D01*
X139127250Y-52799938D01*
X139299126Y-52942632D01*
X139369595Y-52983811D01*
X139372445Y-52985476D01*
X139421169Y-53037114D01*
X139434240Y-53106897D01*
X139407509Y-53172669D01*
X139367055Y-53206027D01*
X139354607Y-53212507D01*
X139350474Y-53215610D01*
X139350471Y-53215612D01*
X139326247Y-53233800D01*
X139175965Y-53346635D01*
X139021629Y-53508138D01*
X138895743Y-53692680D01*
X138801688Y-53895305D01*
X138741989Y-54110570D01*
X138718251Y-54332695D01*
X103389056Y-54332695D01*
X103389056Y-51407934D01*
X119013239Y-51407934D01*
X119016022Y-51411652D01*
X119147857Y-51460681D01*
X119161448Y-51464070D01*
X119316044Y-51484697D01*
X119330040Y-51484991D01*
X119485360Y-51470855D01*
X119499085Y-51468038D01*
X119647415Y-51419843D01*
X119656055Y-51415924D01*
X119663463Y-51407934D01*
X120413239Y-51407934D01*
X120416022Y-51411652D01*
X120547857Y-51460681D01*
X120561448Y-51464070D01*
X120716044Y-51484697D01*
X120730040Y-51484991D01*
X120885360Y-51470855D01*
X120899085Y-51468038D01*
X121047415Y-51419843D01*
X121056055Y-51415924D01*
X121064430Y-51406891D01*
X121060925Y-51398478D01*
X120751812Y-51089365D01*
X120737868Y-51081751D01*
X120736035Y-51081882D01*
X120729420Y-51086133D01*
X120419999Y-51395554D01*
X120413239Y-51407934D01*
X119663463Y-51407934D01*
X119664430Y-51406891D01*
X119660925Y-51398478D01*
X119351812Y-51089365D01*
X119337868Y-51081751D01*
X119336035Y-51081882D01*
X119329420Y-51086133D01*
X119019999Y-51395554D01*
X119013239Y-51407934D01*
X103389056Y-51407934D01*
X103389056Y-50707934D01*
X118313239Y-50707934D01*
X118316022Y-50711652D01*
X118447857Y-50760681D01*
X118461448Y-50764070D01*
X118483948Y-50767072D01*
X118548825Y-50795907D01*
X118587814Y-50855240D01*
X118590314Y-50867776D01*
X118590720Y-50867690D01*
X118595097Y-50888280D01*
X118644327Y-51036270D01*
X118646729Y-51041468D01*
X118654717Y-51048772D01*
X118663338Y-51045109D01*
X118972635Y-50735812D01*
X118979013Y-50724132D01*
X119697751Y-50724132D01*
X119697882Y-50725965D01*
X119702133Y-50732580D01*
X120011178Y-51041625D01*
X120025123Y-51049240D01*
X120028686Y-51048985D01*
X120051573Y-51050108D01*
X120063338Y-51045109D01*
X120372635Y-50735812D01*
X120379013Y-50724132D01*
X121097751Y-50724132D01*
X121097882Y-50725965D01*
X121102133Y-50732580D01*
X121411178Y-51041625D01*
X121423558Y-51048385D01*
X121427374Y-51045528D01*
X121475330Y-50919284D01*
X121478811Y-50905726D01*
X121482794Y-50877388D01*
X121512082Y-50812714D01*
X121571687Y-50774141D01*
X121582232Y-50771498D01*
X121599078Y-50768040D01*
X121747415Y-50719843D01*
X121756055Y-50715924D01*
X121764430Y-50706891D01*
X121760925Y-50698478D01*
X121451812Y-50389365D01*
X121437868Y-50381751D01*
X121436035Y-50381882D01*
X121429420Y-50386133D01*
X121105365Y-50710188D01*
X121097751Y-50724132D01*
X120379013Y-50724132D01*
X120380249Y-50721868D01*
X120380118Y-50720035D01*
X120375867Y-50713420D01*
X120051812Y-50389365D01*
X120037868Y-50381751D01*
X120036035Y-50381882D01*
X120029420Y-50386133D01*
X119705365Y-50710188D01*
X119697751Y-50724132D01*
X118979013Y-50724132D01*
X118980249Y-50721868D01*
X118980118Y-50720035D01*
X118975867Y-50713420D01*
X118651812Y-50389365D01*
X118637868Y-50381751D01*
X118636035Y-50381882D01*
X118629420Y-50386133D01*
X118319999Y-50695554D01*
X118313239Y-50707934D01*
X103389056Y-50707934D01*
X103389056Y-50019362D01*
X117876966Y-50019362D01*
X117892186Y-50174585D01*
X117895097Y-50188280D01*
X117944327Y-50336270D01*
X117946729Y-50341468D01*
X117954717Y-50348772D01*
X117963338Y-50345109D01*
X118272635Y-50035812D01*
X118279013Y-50024132D01*
X118997751Y-50024132D01*
X118997882Y-50025965D01*
X119002133Y-50032580D01*
X119326188Y-50356635D01*
X119340132Y-50364249D01*
X119341965Y-50364118D01*
X119348580Y-50359867D01*
X119672635Y-50035812D01*
X119679013Y-50024132D01*
X120397751Y-50024132D01*
X120397882Y-50025965D01*
X120402133Y-50032580D01*
X120726188Y-50356635D01*
X120740132Y-50364249D01*
X120741965Y-50364118D01*
X120748580Y-50359867D01*
X121072635Y-50035812D01*
X121079013Y-50024132D01*
X121797751Y-50024132D01*
X121797882Y-50025965D01*
X121802133Y-50032580D01*
X122111178Y-50341625D01*
X122123558Y-50348385D01*
X122127374Y-50345528D01*
X122175331Y-50219283D01*
X122178811Y-50205727D01*
X122200948Y-50048221D01*
X122201554Y-50040338D01*
X122201741Y-50026962D01*
X122201354Y-50019062D01*
X122183625Y-49861003D01*
X122180523Y-49847350D01*
X122129700Y-49701407D01*
X122124141Y-49696467D01*
X122115088Y-49700465D01*
X121805365Y-50010188D01*
X121797751Y-50024132D01*
X121079013Y-50024132D01*
X121080249Y-50021868D01*
X121080118Y-50020035D01*
X121075867Y-50013420D01*
X120751812Y-49689365D01*
X120737868Y-49681751D01*
X120736035Y-49681882D01*
X120729420Y-49686133D01*
X120405365Y-50010188D01*
X120397751Y-50024132D01*
X119679013Y-50024132D01*
X119680249Y-50021868D01*
X119680118Y-50020035D01*
X119675867Y-50013420D01*
X119351812Y-49689365D01*
X119337868Y-49681751D01*
X119336035Y-49681882D01*
X119329420Y-49686133D01*
X119005365Y-50010188D01*
X118997751Y-50024132D01*
X118279013Y-50024132D01*
X118280249Y-50021868D01*
X118280118Y-50020035D01*
X118275867Y-50013420D01*
X117966039Y-49703592D01*
X117953659Y-49696832D01*
X117950037Y-49699543D01*
X117900001Y-49837016D01*
X117896709Y-49850625D01*
X117877162Y-50005356D01*
X117876966Y-50019362D01*
X103389056Y-50019362D01*
X103389056Y-49335339D01*
X118311577Y-49335339D01*
X118316684Y-49347131D01*
X118626188Y-49656635D01*
X118640132Y-49664249D01*
X118641965Y-49664118D01*
X118648580Y-49659867D01*
X118972635Y-49335812D01*
X118979013Y-49324132D01*
X119697751Y-49324132D01*
X119697882Y-49325965D01*
X119702133Y-49332580D01*
X120026188Y-49656635D01*
X120040132Y-49664249D01*
X120041965Y-49664118D01*
X120048580Y-49659867D01*
X120372635Y-49335812D01*
X120379013Y-49324132D01*
X121097751Y-49324132D01*
X121097882Y-49325965D01*
X121102133Y-49332580D01*
X121426188Y-49656635D01*
X121440132Y-49664249D01*
X121441965Y-49664118D01*
X121448580Y-49659867D01*
X121758847Y-49349600D01*
X121766461Y-49335656D01*
X121765811Y-49326567D01*
X121766575Y-49312039D01*
X121760925Y-49298478D01*
X121451812Y-48989365D01*
X121437868Y-48981751D01*
X121436035Y-48981882D01*
X121429420Y-48986133D01*
X121105365Y-49310188D01*
X121097751Y-49324132D01*
X120379013Y-49324132D01*
X120380249Y-49321868D01*
X120380118Y-49320035D01*
X120375867Y-49313420D01*
X120051812Y-48989365D01*
X120037868Y-48981751D01*
X120036035Y-48981882D01*
X120029420Y-48986133D01*
X119705365Y-49310188D01*
X119697751Y-49324132D01*
X118979013Y-49324132D01*
X118980249Y-49321868D01*
X118980118Y-49320035D01*
X118975867Y-49313420D01*
X118651812Y-48989365D01*
X118637868Y-48981751D01*
X118636035Y-48981882D01*
X118629420Y-48986133D01*
X118319999Y-49295554D01*
X118312385Y-49309498D01*
X118312611Y-49312663D01*
X118311577Y-49335339D01*
X103389056Y-49335339D01*
X103389056Y-49316896D01*
X103409058Y-49248775D01*
X103425961Y-49227801D01*
X104034400Y-48619362D01*
X117876966Y-48619362D01*
X117892186Y-48774585D01*
X117895097Y-48788280D01*
X117944327Y-48936270D01*
X117946729Y-48941468D01*
X117954717Y-48948772D01*
X117963338Y-48945109D01*
X118272635Y-48635812D01*
X118279013Y-48624132D01*
X118997751Y-48624132D01*
X118997882Y-48625965D01*
X119002133Y-48632580D01*
X119326188Y-48956635D01*
X119340132Y-48964249D01*
X119341965Y-48964118D01*
X119348580Y-48959867D01*
X119672635Y-48635812D01*
X119679013Y-48624132D01*
X120397751Y-48624132D01*
X120397882Y-48625965D01*
X120402133Y-48632580D01*
X120726188Y-48956635D01*
X120740132Y-48964249D01*
X120741965Y-48964118D01*
X120748580Y-48959867D01*
X121072635Y-48635812D01*
X121079013Y-48624132D01*
X121797751Y-48624132D01*
X121797882Y-48625965D01*
X121802133Y-48632580D01*
X122111178Y-48941625D01*
X122123558Y-48948385D01*
X122127374Y-48945528D01*
X122175331Y-48819283D01*
X122178811Y-48805727D01*
X122200948Y-48648221D01*
X122201554Y-48640338D01*
X122201741Y-48626962D01*
X122201354Y-48619062D01*
X122183625Y-48461003D01*
X122180523Y-48447350D01*
X122129700Y-48301407D01*
X122124141Y-48296467D01*
X122115088Y-48300465D01*
X121805365Y-48610188D01*
X121797751Y-48624132D01*
X121079013Y-48624132D01*
X121080249Y-48621868D01*
X121080118Y-48620035D01*
X121075867Y-48613420D01*
X120751812Y-48289365D01*
X120737868Y-48281751D01*
X120736035Y-48281882D01*
X120729420Y-48286133D01*
X120405365Y-48610188D01*
X120397751Y-48624132D01*
X119679013Y-48624132D01*
X119680249Y-48621868D01*
X119680118Y-48620035D01*
X119675867Y-48613420D01*
X119351812Y-48289365D01*
X119337868Y-48281751D01*
X119336035Y-48281882D01*
X119329420Y-48286133D01*
X119005365Y-48610188D01*
X118997751Y-48624132D01*
X118279013Y-48624132D01*
X118280249Y-48621868D01*
X118280118Y-48620035D01*
X118275867Y-48613420D01*
X117966039Y-48303592D01*
X117953659Y-48296832D01*
X117950037Y-48299543D01*
X117900001Y-48437016D01*
X117896709Y-48450625D01*
X117877162Y-48605356D01*
X117876966Y-48619362D01*
X104034400Y-48619362D01*
X104715460Y-47938302D01*
X118312860Y-47938302D01*
X118316684Y-47947131D01*
X118626188Y-48256635D01*
X118640132Y-48264249D01*
X118641965Y-48264118D01*
X118648580Y-48259867D01*
X118972635Y-47935812D01*
X118979013Y-47924132D01*
X119697751Y-47924132D01*
X119697882Y-47925965D01*
X119702133Y-47932580D01*
X120026188Y-48256635D01*
X120040132Y-48264249D01*
X120041965Y-48264118D01*
X120048580Y-48259867D01*
X120372635Y-47935812D01*
X120379013Y-47924132D01*
X121097751Y-47924132D01*
X121097882Y-47925965D01*
X121102133Y-47932580D01*
X121426188Y-48256635D01*
X121440132Y-48264249D01*
X121441965Y-48264118D01*
X121448580Y-48259867D01*
X121758847Y-47949600D01*
X121765607Y-47937220D01*
X121763022Y-47933766D01*
X121762722Y-47933606D01*
X121619826Y-47882723D01*
X121606179Y-47879522D01*
X121594601Y-47878141D01*
X121529328Y-47850214D01*
X121489516Y-47791430D01*
X121484306Y-47767074D01*
X121483625Y-47761002D01*
X121480523Y-47747350D01*
X121429700Y-47601407D01*
X121424141Y-47596467D01*
X121415088Y-47600465D01*
X121105365Y-47910188D01*
X121097751Y-47924132D01*
X120379013Y-47924132D01*
X120380249Y-47921868D01*
X120380118Y-47920035D01*
X120375867Y-47913420D01*
X120066039Y-47603592D01*
X120052094Y-47595977D01*
X120049342Y-47596174D01*
X120026935Y-47595233D01*
X120015088Y-47600465D01*
X119705365Y-47910188D01*
X119697751Y-47924132D01*
X118979013Y-47924132D01*
X118980249Y-47921868D01*
X118980118Y-47920035D01*
X118975867Y-47913420D01*
X118666039Y-47603592D01*
X118653659Y-47596832D01*
X118650037Y-47599543D01*
X118600001Y-47737016D01*
X118596709Y-47750624D01*
X118594553Y-47767691D01*
X118566171Y-47832767D01*
X118507111Y-47872168D01*
X118482718Y-47877208D01*
X118482206Y-47877262D01*
X118468533Y-47880268D01*
X118320884Y-47930532D01*
X118319113Y-47931366D01*
X118312860Y-47938302D01*
X104715460Y-47938302D01*
X105415460Y-47238302D01*
X119012860Y-47238302D01*
X119016684Y-47247131D01*
X119326188Y-47556635D01*
X119340132Y-47564249D01*
X119341965Y-47564118D01*
X119348580Y-47559867D01*
X119658847Y-47249600D01*
X119665016Y-47238302D01*
X120412860Y-47238302D01*
X120416684Y-47247131D01*
X120726188Y-47556635D01*
X120740132Y-47564249D01*
X120741965Y-47564118D01*
X120748580Y-47559867D01*
X121058847Y-47249600D01*
X121065607Y-47237220D01*
X121063022Y-47233766D01*
X121062722Y-47233606D01*
X120919820Y-47182720D01*
X120906195Y-47179524D01*
X120751318Y-47161057D01*
X120737321Y-47160959D01*
X120582207Y-47177262D01*
X120568533Y-47180268D01*
X120420884Y-47230532D01*
X120419113Y-47231366D01*
X120412860Y-47238302D01*
X119665016Y-47238302D01*
X119665607Y-47237220D01*
X119663022Y-47233766D01*
X119662722Y-47233606D01*
X119519820Y-47182720D01*
X119506195Y-47179524D01*
X119351318Y-47161057D01*
X119337321Y-47160959D01*
X119182207Y-47177262D01*
X119168533Y-47180268D01*
X119020884Y-47230532D01*
X119019113Y-47231366D01*
X119012860Y-47238302D01*
X105415460Y-47238302D01*
X107458357Y-45195405D01*
X107520669Y-45161379D01*
X107547452Y-45158500D01*
X107595487Y-45158500D01*
X107601939Y-45157128D01*
X107601944Y-45157128D01*
X107688888Y-45138647D01*
X107782288Y-45118794D01*
X107807361Y-45107631D01*
X107950722Y-45043803D01*
X107950724Y-45043802D01*
X107956752Y-45041118D01*
X108111253Y-44928866D01*
X108178979Y-44853649D01*
X108234621Y-44791852D01*
X108234622Y-44791851D01*
X108239040Y-44786944D01*
X108321183Y-44644669D01*
X157492001Y-44644669D01*
X157492371Y-44651490D01*
X157497895Y-44702352D01*
X157501521Y-44717604D01*
X157546676Y-44838054D01*
X157555214Y-44853649D01*
X157631715Y-44955724D01*
X157644276Y-44968285D01*
X157746351Y-45044786D01*
X157761946Y-45053324D01*
X157882394Y-45098478D01*
X157897649Y-45102105D01*
X157948514Y-45107631D01*
X157955328Y-45108000D01*
X158402885Y-45108000D01*
X158418124Y-45103525D01*
X158419329Y-45102135D01*
X158421000Y-45094452D01*
X158421000Y-45089884D01*
X158929000Y-45089884D01*
X158933475Y-45105123D01*
X158934865Y-45106328D01*
X158942548Y-45107999D01*
X159394669Y-45107999D01*
X159401490Y-45107629D01*
X159452352Y-45102105D01*
X159467604Y-45098479D01*
X159588054Y-45053324D01*
X159603649Y-45044786D01*
X159705724Y-44968285D01*
X159718285Y-44955724D01*
X159794786Y-44853649D01*
X159803324Y-44838054D01*
X159848478Y-44717606D01*
X159852105Y-44702351D01*
X159857631Y-44651486D01*
X159858000Y-44644672D01*
X159858000Y-44644669D01*
X163142001Y-44644669D01*
X163142371Y-44651490D01*
X163147895Y-44702352D01*
X163151521Y-44717604D01*
X163196676Y-44838054D01*
X163205214Y-44853649D01*
X163281715Y-44955724D01*
X163294276Y-44968285D01*
X163396351Y-45044786D01*
X163411946Y-45053324D01*
X163532394Y-45098478D01*
X163547649Y-45102105D01*
X163598514Y-45107631D01*
X163605328Y-45108000D01*
X164052885Y-45108000D01*
X164068124Y-45103525D01*
X164069329Y-45102135D01*
X164071000Y-45094452D01*
X164071000Y-45089884D01*
X164579000Y-45089884D01*
X164583475Y-45105123D01*
X164584865Y-45106328D01*
X164592548Y-45107999D01*
X165044669Y-45107999D01*
X165051490Y-45107629D01*
X165102352Y-45102105D01*
X165117604Y-45098479D01*
X165238054Y-45053324D01*
X165253649Y-45044786D01*
X165355724Y-44968285D01*
X165368285Y-44955724D01*
X165444786Y-44853649D01*
X165453324Y-44838054D01*
X165498478Y-44717606D01*
X165502105Y-44702351D01*
X165507631Y-44651486D01*
X165508000Y-44644672D01*
X165508000Y-42772115D01*
X165503525Y-42756876D01*
X165502135Y-42755671D01*
X165494452Y-42754000D01*
X164597115Y-42754000D01*
X164581876Y-42758475D01*
X164580671Y-42759865D01*
X164579000Y-42767548D01*
X164579000Y-45089884D01*
X164071000Y-45089884D01*
X164071000Y-42772115D01*
X164066525Y-42756876D01*
X164065135Y-42755671D01*
X164057452Y-42754000D01*
X163160116Y-42754000D01*
X163144877Y-42758475D01*
X163143672Y-42759865D01*
X163142001Y-42767548D01*
X163142001Y-44644669D01*
X159858000Y-44644669D01*
X159858000Y-42772115D01*
X159853525Y-42756876D01*
X159852135Y-42755671D01*
X159844452Y-42754000D01*
X158947115Y-42754000D01*
X158931876Y-42758475D01*
X158930671Y-42759865D01*
X158929000Y-42767548D01*
X158929000Y-45089884D01*
X158421000Y-45089884D01*
X158421000Y-42772115D01*
X158416525Y-42756876D01*
X158415135Y-42755671D01*
X158407452Y-42754000D01*
X157510116Y-42754000D01*
X157494877Y-42758475D01*
X157493672Y-42759865D01*
X157492001Y-42767548D01*
X157492001Y-44644669D01*
X108321183Y-44644669D01*
X108334527Y-44621556D01*
X108393542Y-44439928D01*
X108403666Y-44343609D01*
X108412814Y-44256565D01*
X108413504Y-44250000D01*
X108406947Y-44187616D01*
X108394232Y-44066635D01*
X108394232Y-44066633D01*
X108393542Y-44060072D01*
X108334527Y-43878444D01*
X108239040Y-43713056D01*
X108111253Y-43571134D01*
X107989262Y-43482502D01*
X107962094Y-43462763D01*
X107962093Y-43462762D01*
X107956752Y-43458882D01*
X107950724Y-43456198D01*
X107950722Y-43456197D01*
X107788319Y-43383891D01*
X107788318Y-43383891D01*
X107782288Y-43381206D01*
X107688887Y-43361353D01*
X107601944Y-43342872D01*
X107601939Y-43342872D01*
X107595487Y-43341500D01*
X107404513Y-43341500D01*
X107398061Y-43342872D01*
X107398056Y-43342872D01*
X107311112Y-43361353D01*
X107217712Y-43381206D01*
X107211682Y-43383891D01*
X107211681Y-43383891D01*
X107049278Y-43456197D01*
X107049276Y-43456198D01*
X107043248Y-43458882D01*
X107037907Y-43462762D01*
X107037906Y-43462763D01*
X107010738Y-43482502D01*
X106888747Y-43571134D01*
X106760960Y-43713056D01*
X106665473Y-43878444D01*
X106606458Y-44060072D01*
X106605768Y-44066633D01*
X106605768Y-44066635D01*
X106590016Y-44216513D01*
X106563003Y-44282170D01*
X106553801Y-44292438D01*
X102354338Y-48491901D01*
X102345941Y-48499542D01*
X102339413Y-48503685D01*
X102333987Y-48509463D01*
X102333986Y-48509464D01*
X102292354Y-48553798D01*
X102289599Y-48556640D01*
X102269691Y-48576548D01*
X102267160Y-48579812D01*
X102259453Y-48588835D01*
X102228884Y-48621387D01*
X102225065Y-48628333D01*
X102225064Y-48628335D01*
X102218997Y-48639371D01*
X102208143Y-48655895D01*
X102195566Y-48672109D01*
X102192418Y-48679384D01*
X102177833Y-48713087D01*
X102172612Y-48723744D01*
X102151098Y-48762878D01*
X102145991Y-48782768D01*
X102139593Y-48801454D01*
X102131441Y-48820292D01*
X102126464Y-48851720D01*
X102124456Y-48864397D01*
X102122051Y-48876010D01*
X102110944Y-48919268D01*
X102110944Y-48939790D01*
X102109393Y-48959500D01*
X102106183Y-48979768D01*
X102106929Y-48987660D01*
X102110385Y-49024220D01*
X102110944Y-49036078D01*
X102110944Y-60303646D01*
X102090942Y-60371767D01*
X102078580Y-60387956D01*
X102010960Y-60463056D01*
X101915473Y-60628444D01*
X101856458Y-60810072D01*
X101855768Y-60816633D01*
X101855768Y-60816635D01*
X101843972Y-60928866D01*
X101836496Y-61000000D01*
X101837186Y-61006565D01*
X101848982Y-61118794D01*
X101856458Y-61189928D01*
X101915473Y-61371556D01*
X101918776Y-61377278D01*
X101918777Y-61377279D01*
X101968301Y-61463056D01*
X102010960Y-61536944D01*
X102015087Y-61541528D01*
X102038892Y-61608240D01*
X102022814Y-61677392D01*
X101971901Y-61726874D01*
X101913098Y-61741437D01*
X100866397Y-61741437D01*
X100798276Y-61721435D01*
X100777302Y-61704532D01*
X98795468Y-59722698D01*
X98761442Y-59660386D01*
X98758563Y-59633603D01*
X98758563Y-43536890D01*
X98775444Y-43473890D01*
X98831223Y-43377279D01*
X98831224Y-43377278D01*
X98834527Y-43371556D01*
X98893542Y-43189928D01*
X98913504Y-43000000D01*
X98893542Y-42810072D01*
X98874023Y-42750000D01*
X167386526Y-42750000D01*
X167406391Y-43002403D01*
X167465495Y-43248591D01*
X167467388Y-43253162D01*
X167467389Y-43253164D01*
X167558817Y-43473890D01*
X167562384Y-43482502D01*
X167694672Y-43698376D01*
X167859102Y-43890898D01*
X168051624Y-44055328D01*
X168267498Y-44187616D01*
X168272068Y-44189509D01*
X168272072Y-44189511D01*
X168496836Y-44282611D01*
X168501409Y-44284505D01*
X168534453Y-44292438D01*
X168742784Y-44342454D01*
X168742790Y-44342455D01*
X168747597Y-44343609D01*
X168847416Y-44351465D01*
X168934345Y-44358307D01*
X168934352Y-44358307D01*
X168936801Y-44358500D01*
X169063199Y-44358500D01*
X169065648Y-44358307D01*
X169065655Y-44358307D01*
X169152584Y-44351465D01*
X169252403Y-44343609D01*
X169257210Y-44342455D01*
X169257216Y-44342454D01*
X169465547Y-44292438D01*
X169498591Y-44284505D01*
X169503164Y-44282611D01*
X169727928Y-44189511D01*
X169727932Y-44189509D01*
X169732502Y-44187616D01*
X169948376Y-44055328D01*
X170140898Y-43890898D01*
X170305328Y-43698376D01*
X170437616Y-43482502D01*
X170441184Y-43473890D01*
X170532611Y-43253164D01*
X170532612Y-43253162D01*
X170534505Y-43248591D01*
X170593609Y-43002403D01*
X170613474Y-42750000D01*
X170593609Y-42497597D01*
X170586690Y-42468774D01*
X170535660Y-42256221D01*
X170534505Y-42251409D01*
X170532265Y-42246000D01*
X170439511Y-42022072D01*
X170439509Y-42022068D01*
X170437616Y-42017498D01*
X170305328Y-41801624D01*
X170140898Y-41609102D01*
X169948376Y-41444672D01*
X169732502Y-41312384D01*
X169727932Y-41310491D01*
X169727928Y-41310489D01*
X169503164Y-41217389D01*
X169503162Y-41217388D01*
X169498591Y-41215495D01*
X169413968Y-41195179D01*
X169257216Y-41157546D01*
X169257210Y-41157545D01*
X169252403Y-41156391D01*
X169152584Y-41148535D01*
X169065655Y-41141693D01*
X169065648Y-41141693D01*
X169063199Y-41141500D01*
X168936801Y-41141500D01*
X168934352Y-41141693D01*
X168934345Y-41141693D01*
X168847416Y-41148535D01*
X168747597Y-41156391D01*
X168742790Y-41157545D01*
X168742784Y-41157546D01*
X168586032Y-41195179D01*
X168501409Y-41215495D01*
X168496838Y-41217388D01*
X168496836Y-41217389D01*
X168272072Y-41310489D01*
X168272068Y-41310491D01*
X168267498Y-41312384D01*
X168051624Y-41444672D01*
X167859102Y-41609102D01*
X167694672Y-41801624D01*
X167562384Y-42017498D01*
X167560491Y-42022068D01*
X167560489Y-42022072D01*
X167467735Y-42246000D01*
X167465495Y-42251409D01*
X167464340Y-42256221D01*
X167413311Y-42468774D01*
X167406391Y-42497597D01*
X167386526Y-42750000D01*
X98874023Y-42750000D01*
X98834527Y-42628444D01*
X98739040Y-42463056D01*
X98611253Y-42321134D01*
X98456752Y-42208882D01*
X98450724Y-42206198D01*
X98450722Y-42206197D01*
X98288319Y-42133891D01*
X98288318Y-42133891D01*
X98282288Y-42131206D01*
X98188887Y-42111353D01*
X98101944Y-42092872D01*
X98101939Y-42092872D01*
X98095487Y-42091500D01*
X97904513Y-42091500D01*
X97898061Y-42092872D01*
X97898056Y-42092872D01*
X97811113Y-42111353D01*
X97717712Y-42131206D01*
X97711682Y-42133891D01*
X97711681Y-42133891D01*
X97549278Y-42206197D01*
X97549276Y-42206198D01*
X97543248Y-42208882D01*
X97388747Y-42321134D01*
X97260960Y-42463056D01*
X97165473Y-42628444D01*
X97106458Y-42810072D01*
X97086496Y-43000000D01*
X75593798Y-43000000D01*
X75613474Y-42750000D01*
X75593609Y-42497597D01*
X75586690Y-42468774D01*
X75535660Y-42256221D01*
X75534505Y-42251409D01*
X75532265Y-42246000D01*
X75439511Y-42022072D01*
X75439509Y-42022068D01*
X75437616Y-42017498D01*
X75305328Y-41801624D01*
X75140898Y-41609102D01*
X74948376Y-41444672D01*
X74732502Y-41312384D01*
X74727932Y-41310491D01*
X74727928Y-41310489D01*
X74503164Y-41217389D01*
X74503162Y-41217388D01*
X74498591Y-41215495D01*
X74413968Y-41195179D01*
X74257216Y-41157546D01*
X74257210Y-41157545D01*
X74252403Y-41156391D01*
X74152584Y-41148535D01*
X74065655Y-41141693D01*
X74065648Y-41141693D01*
X74063199Y-41141500D01*
X73936801Y-41141500D01*
X73934352Y-41141693D01*
X73934345Y-41141693D01*
X73847416Y-41148535D01*
X73747597Y-41156391D01*
X73742790Y-41157545D01*
X73742784Y-41157546D01*
X73586032Y-41195179D01*
X73501409Y-41215495D01*
X73496838Y-41217388D01*
X73496836Y-41217389D01*
X73272072Y-41310489D01*
X73272068Y-41310491D01*
X73267498Y-41312384D01*
X73051624Y-41444672D01*
X72859102Y-41609102D01*
X72694672Y-41801624D01*
X72562384Y-42017498D01*
X72560491Y-42022068D01*
X72560489Y-42022072D01*
X72467735Y-42246000D01*
X72465495Y-42251409D01*
X72464340Y-42256221D01*
X72413311Y-42468774D01*
X72406391Y-42497597D01*
X72386526Y-42750000D01*
X72008500Y-42750000D01*
X72008500Y-40884500D01*
X72028502Y-40816379D01*
X72082158Y-40769886D01*
X72134500Y-40758500D01*
X157366000Y-40758500D01*
X157434121Y-40778502D01*
G37*
G04 #@! TD.AperFunction*
M02*
